[
  {
    "_id": "4e843270-ad56-11e9-bbc3-59a8788c8a2e",
    "_type": "dashboard",
    "_source": {
      "title": "CA_Spies_Logstash_Dashboard",
      "hits": 0,
      "description": "",
      "panelsJSON": "[{\"gridData\":{\"h\":3,\"i\":\"2\",\"w\":12,\"x\":0,\"y\":0},\"id\":\"3293e850-ad4a-11e9-bbc3-59a8788c8a2e\",\"panelIndex\":\"2\",\"title\":\"Trade Volume UAT\",\"type\":\"visualization\",\"version\":\"6.2.4\"},{\"gridData\":{\"h\":3,\"i\":\"3\",\"w\":12,\"x\":0,\"y\":3},\"id\":\"4e86c0f0-ad4a-11e9-bbc3-59a8788c8a2e\",\"panelIndex\":\"3\",\"title\":\"Trade Volume Prod\",\"type\":\"visualization\",\"version\":\"6.2.4\"}]",
      "optionsJSON": "{\"darkTheme\":false,\"hidePanelTitles\":false,\"useMargins\":true}",
      "version": 1,
      "timeRestore": false,
      "kibanaSavedObjectMeta": {
        "searchSourceJSON": "{\"query\":{\"language\":\"lucene\",\"query\":\"\"},\"filter\":[],\"highlightAll\":true,\"version\":true}"
      }
    }
  },
  {
    "_id": "f95fc580-aef3-11e9-82c1-29cf23503685",
    "_type": "dashboard",
    "_source": {
      "title": "CA_Spies_Metricbeat_Dashboard_Prod",
      "hits": 0,
      "description": "",
      "panelsJSON": "[{\"panelIndex\":\"1\",\"gridData\":{\"x\":0,\"y\":10,\"w\":6,\"h\":3,\"i\":\"1\"},\"title\":\"Network Traffic (Packets) Over-time\",\"id\":\"6b7b9a40-faa1-11e6-86b1-cd7735ff7e23\",\"type\":\"visualization\",\"version\":\"6.2.4\"},{\"panelIndex\":\"2\",\"gridData\":{\"x\":6,\"y\":4,\"w\":6,\"h\":3,\"i\":\"2\"},\"id\":\"4d546850-1b15-11e7-b09e-037021c4f8df\",\"title\":\"System Load Over-time\",\"type\":\"visualization\",\"version\":\"6.2.4\"},{\"panelIndex\":\"3\",\"gridData\":{\"x\":6,\"y\":10,\"w\":6,\"h\":3,\"i\":\"3\"},\"title\":\"Network Traffic (Bytes) Over-time\",\"id\":\"089b85d0-1b16-11e7-b09e-037021c4f8df\",\"type\":\"visualization\",\"version\":\"6.2.4\"},{\"panelIndex\":\"4\",\"gridData\":{\"x\":0,\"y\":7,\"w\":6,\"h\":3,\"i\":\"4\"},\"id\":\"bfa5e400-1b16-11e7-b09e-037021c4f8df\",\"title\":\"Memory Usage Over-time\",\"type\":\"visualization\",\"version\":\"6.2.4\"},{\"panelIndex\":\"5\",\"gridData\":{\"x\":0,\"y\":13,\"w\":6,\"h\":3,\"i\":\"5\"},\"title\":\"Top Processes By CPU\",\"id\":\"e0f001c0-1b18-11e7-b09e-037021c4f8df\",\"type\":\"visualization\",\"version\":\"6.2.4\"},{\"title\":\"Top Processes By Memory\",\"panelIndex\":\"6\",\"gridData\":{\"x\":6,\"y\":13,\"w\":6,\"h\":3,\"i\":\"6\"},\"id\":\"2e224660-1b19-11e7-b09e-037021c4f8df\",\"type\":\"visualization\",\"version\":\"6.2.4\"},{\"panelIndex\":\"7\",\"gridData\":{\"x\":0,\"y\":4,\"w\":6,\"h\":3,\"i\":\"7\"},\"id\":\"ab2d1e90-1b1a-11e7-b09e-037021c4f8df\",\"title\":\"CPU Usage Over-time\",\"type\":\"visualization\",\"version\":\"6.2.4\"},{\"panelIndex\":\"9\",\"gridData\":{\"x\":10,\"y\":0,\"w\":2,\"h\":2,\"i\":\"9\"},\"id\":\"26732e20-1b91-11e7-bec4-a5e9ec5cab8b\",\"title\":\"CPU Load Gauge\",\"type\":\"visualization\",\"version\":\"6.2.4\"},{\"panelIndex\":\"10\",\"gridData\":{\"x\":6,\"y\":0,\"w\":2,\"h\":2,\"i\":\"10\"},\"id\":\"83e12df0-1b91-11e7-bec4-a5e9ec5cab8b\",\"title\":\"CPU Usage Gauge\",\"type\":\"visualization\",\"version\":\"6.2.4\"},{\"panelIndex\":\"11\",\"gridData\":{\"x\":8,\"y\":0,\"w\":2,\"h\":2,\"i\":\"11\"},\"id\":\"d3166e80-1b91-11e7-bec4-a5e9ec5cab8b\",\"title\":\"Memory Usage Gauge\",\"type\":\"visualization\",\"version\":\"6.2.4\"},{\"panelIndex\":\"12\",\"gridData\":{\"x\":0,\"y\":2,\"w\":2,\"h\":2,\"i\":\"12\"},\"id\":\"522ee670-1b92-11e7-bec4-a5e9ec5cab8b\",\"title\":\"Inbound Traffic\",\"type\":\"visualization\",\"version\":\"6.2.4\"},{\"panelIndex\":\"13\",\"gridData\":{\"x\":2,\"y\":2,\"w\":2,\"h\":2,\"i\":\"13\"},\"id\":\"1aae9140-1b93-11e7-8ada-3df93aab833e\",\"title\":\"Outbound Traffic\",\"type\":\"visualization\",\"version\":\"6.2.4\"},{\"panelIndex\":\"22\",\"gridData\":{\"x\":8,\"y\":2,\"w\":2,\"h\":2,\"i\":\"22\"},\"id\":\"d2e80340-4d5c-11e7-aa29-87a97a796de6\",\"type\":\"visualization\",\"version\":\"6.2.4\"},{\"panelIndex\":\"23\",\"gridData\":{\"x\":6,\"y\":2,\"w\":2,\"h\":2,\"i\":\"23\"},\"id\":\"825fdb80-4d1d-11e7-b5f2-2b7c1895bf32\",\"title\":\"Disk used\",\"type\":\"visualization\",\"version\":\"6.2.4\"},{\"panelIndex\":\"25\",\"gridData\":{\"x\":4,\"y\":2,\"w\":2,\"h\":2,\"i\":\"25\"},\"id\":\"96976150-4d5d-11e7-aa29-87a97a796de6\",\"title\":\"Packetloss\",\"type\":\"visualization\",\"version\":\"6.2.4\"},{\"panelIndex\":\"29\",\"gridData\":{\"x\":10,\"y\":2,\"w\":2,\"h\":2,\"i\":\"29\"},\"embeddableConfig\":{\"vis\":{\"defaultColors\":{\"0 - 100\":\"rgb(0,104,55)\"}}},\"id\":\"590a60f0-5d87-11e7-8884-1bb4c3b890e4\",\"title\":\"Number of processes\",\"type\":\"visualization\",\"version\":\"6.2.4\"},{\"panelIndex\":\"30\",\"gridData\":{\"x\":0,\"y\":0,\"w\":6,\"h\":2,\"i\":\"30\"},\"id\":\"9ecf00f0-acc2-11e9-b96a-9df05cafdecf\",\"title\":\"Metricbeat Navigation\",\"type\":\"visualization\",\"version\":\"6.2.4\"},{\"panelIndex\":\"31\",\"gridData\":{\"x\":6,\"y\":7,\"w\":6,\"h\":3,\"i\":\"31\"},\"id\":\"29ab9930-acc4-11e9-b96a-9df05cafdecf\",\"title\":\"Disk Usage Over-time\",\"type\":\"visualization\",\"version\":\"6.2.4\"}]",
      "optionsJSON": "{\"darkTheme\":false,\"useMargins\":false}",
      "version": 1,
      "timeRestore": false,
      "kibanaSavedObjectMeta": {
        "searchSourceJSON": "{\"filter\":[{\"meta\":{\"index\":\"metricbeat-*\",\"type\":\"phrases\",\"key\":\"beat.hostname\",\"value\":\"ip-172-31-45-142.eu-west-1.compute.internal\",\"params\":[\"ip-172-31-45-142.eu-west-1.compute.internal\"],\"negate\":false,\"disabled\":false,\"alias\":null},\"query\":{\"bool\":{\"should\":[{\"match_phrase\":{\"beat.hostname\":\"ip-172-31-45-142.eu-west-1.compute.internal\"}}],\"minimum_should_match\":1}},\"$state\":{\"store\":\"appState\"}}],\"highlightAll\":true,\"version\":true,\"query\":{\"language\":\"lucene\",\"query\":\"\"}}"
      }
    }
  },
  {
    "_id": "1e399080-acc3-11e9-b96a-9df05cafdecf",
    "_type": "dashboard",
    "_source": {
      "title": "CA_Spies_Metricbeat_Dashboard_UAT",
      "hits": 0,
      "description": "",
      "panelsJSON": "[{\"panelIndex\":\"1\",\"gridData\":{\"x\":0,\"y\":10,\"w\":6,\"h\":3,\"i\":\"1\"},\"title\":\"Network Traffic (Packets) Over-time\",\"id\":\"6b7b9a40-faa1-11e6-86b1-cd7735ff7e23\",\"type\":\"visualization\",\"version\":\"6.2.4\"},{\"panelIndex\":\"2\",\"gridData\":{\"x\":6,\"y\":4,\"w\":6,\"h\":3,\"i\":\"2\"},\"id\":\"4d546850-1b15-11e7-b09e-037021c4f8df\",\"title\":\"System Load Over-time\",\"type\":\"visualization\",\"version\":\"6.2.4\"},{\"panelIndex\":\"3\",\"gridData\":{\"x\":6,\"y\":10,\"w\":6,\"h\":3,\"i\":\"3\"},\"title\":\"Network Traffic (Bytes) Over-time\",\"id\":\"089b85d0-1b16-11e7-b09e-037021c4f8df\",\"type\":\"visualization\",\"version\":\"6.2.4\"},{\"panelIndex\":\"4\",\"gridData\":{\"x\":0,\"y\":7,\"w\":6,\"h\":3,\"i\":\"4\"},\"id\":\"bfa5e400-1b16-11e7-b09e-037021c4f8df\",\"title\":\"Memory Usage Over-time\",\"type\":\"visualization\",\"version\":\"6.2.4\"},{\"panelIndex\":\"5\",\"gridData\":{\"x\":0,\"y\":13,\"w\":6,\"h\":3,\"i\":\"5\"},\"title\":\"Top Processes By CPU\",\"id\":\"e0f001c0-1b18-11e7-b09e-037021c4f8df\",\"type\":\"visualization\",\"version\":\"6.2.4\"},{\"title\":\"Top Processes By Memory\",\"panelIndex\":\"6\",\"gridData\":{\"x\":6,\"y\":13,\"w\":6,\"h\":3,\"i\":\"6\"},\"id\":\"2e224660-1b19-11e7-b09e-037021c4f8df\",\"type\":\"visualization\",\"version\":\"6.2.4\"},{\"panelIndex\":\"7\",\"gridData\":{\"x\":0,\"y\":4,\"w\":6,\"h\":3,\"i\":\"7\"},\"id\":\"ab2d1e90-1b1a-11e7-b09e-037021c4f8df\",\"title\":\"CPU Usage Over-time\",\"type\":\"visualization\",\"version\":\"6.2.4\"},{\"panelIndex\":\"9\",\"gridData\":{\"x\":10,\"y\":0,\"w\":2,\"h\":2,\"i\":\"9\"},\"id\":\"26732e20-1b91-11e7-bec4-a5e9ec5cab8b\",\"title\":\"CPU Load Gauge\",\"type\":\"visualization\",\"version\":\"6.2.4\"},{\"panelIndex\":\"10\",\"gridData\":{\"x\":6,\"y\":0,\"w\":2,\"h\":2,\"i\":\"10\"},\"id\":\"83e12df0-1b91-11e7-bec4-a5e9ec5cab8b\",\"title\":\"CPU Usage Gauge\",\"type\":\"visualization\",\"version\":\"6.2.4\"},{\"panelIndex\":\"11\",\"gridData\":{\"x\":8,\"y\":0,\"w\":2,\"h\":2,\"i\":\"11\"},\"id\":\"d3166e80-1b91-11e7-bec4-a5e9ec5cab8b\",\"title\":\"Memory Usage Gauge\",\"type\":\"visualization\",\"version\":\"6.2.4\"},{\"panelIndex\":\"12\",\"gridData\":{\"x\":0,\"y\":2,\"w\":2,\"h\":2,\"i\":\"12\"},\"id\":\"522ee670-1b92-11e7-bec4-a5e9ec5cab8b\",\"title\":\"Inbound Traffic\",\"type\":\"visualization\",\"version\":\"6.2.4\"},{\"panelIndex\":\"13\",\"gridData\":{\"x\":2,\"y\":2,\"w\":2,\"h\":2,\"i\":\"13\"},\"id\":\"1aae9140-1b93-11e7-8ada-3df93aab833e\",\"title\":\"Outbound Traffic\",\"type\":\"visualization\",\"version\":\"6.2.4\"},{\"panelIndex\":\"22\",\"gridData\":{\"x\":8,\"y\":2,\"w\":2,\"h\":2,\"i\":\"22\"},\"id\":\"d2e80340-4d5c-11e7-aa29-87a97a796de6\",\"type\":\"visualization\",\"version\":\"6.2.4\"},{\"panelIndex\":\"23\",\"gridData\":{\"x\":6,\"y\":2,\"w\":2,\"h\":2,\"i\":\"23\"},\"id\":\"825fdb80-4d1d-11e7-b5f2-2b7c1895bf32\",\"title\":\"Disk used\",\"type\":\"visualization\",\"version\":\"6.2.4\"},{\"panelIndex\":\"25\",\"gridData\":{\"x\":4,\"y\":2,\"w\":2,\"h\":2,\"i\":\"25\"},\"id\":\"96976150-4d5d-11e7-aa29-87a97a796de6\",\"title\":\"Packetloss\",\"type\":\"visualization\",\"version\":\"6.2.4\"},{\"panelIndex\":\"29\",\"gridData\":{\"x\":10,\"y\":2,\"w\":2,\"h\":2,\"i\":\"29\"},\"embeddableConfig\":{\"vis\":{\"defaultColors\":{\"0 - 100\":\"rgb(0,104,55)\"}}},\"id\":\"590a60f0-5d87-11e7-8884-1bb4c3b890e4\",\"title\":\"Number of processes\",\"type\":\"visualization\",\"version\":\"6.2.4\"},{\"panelIndex\":\"30\",\"gridData\":{\"x\":0,\"y\":0,\"w\":6,\"h\":2,\"i\":\"30\"},\"id\":\"9ecf00f0-acc2-11e9-b96a-9df05cafdecf\",\"title\":\"Metricbeat Navigation\",\"type\":\"visualization\",\"version\":\"6.2.4\"},{\"panelIndex\":\"31\",\"gridData\":{\"x\":6,\"y\":7,\"w\":6,\"h\":3,\"i\":\"31\"},\"id\":\"29ab9930-acc4-11e9-b96a-9df05cafdecf\",\"title\":\"Disk Usage Over-time\",\"type\":\"visualization\",\"version\":\"6.2.4\"}]",
      "optionsJSON": "{\"darkTheme\":false,\"useMargins\":false}",
      "version": 1,
      "timeRestore": false,
      "kibanaSavedObjectMeta": {
        "searchSourceJSON": "{\"filter\":[{\"$state\":{\"store\":\"appState\"},\"meta\":{\"alias\":null,\"disabled\":false,\"index\":\"metricbeat-*\",\"key\":\"beat.hostname\",\"negate\":false,\"params\":[\"ip-172-31-2-212.eu-west-1.compute.internal\",\"ip-172-31-28-227.eu-west-1.compute.internal\"],\"type\":\"phrases\",\"value\":\"ip-172-31-2-212.eu-west-1.compute.internal, ip-172-31-28-227.eu-west-1.compute.internal\"},\"query\":{\"bool\":{\"minimum_should_match\":1,\"should\":[{\"match_phrase\":{\"beat.hostname\":\"ip-172-31-2-212.eu-west-1.compute.internal\"}},{\"match_phrase\":{\"beat.hostname\":\"ip-172-31-28-227.eu-west-1.compute.internal\"}}]}}}],\"highlightAll\":true,\"version\":true,\"query\":{\"language\":\"lucene\",\"query\":\"\"}}"
      }
    }
  },
  {
    "_id": "cb5d0d10-ad76-11e9-bbc3-59a8788c8a2e",
    "_type": "dashboard",
    "_source": {
      "title": "CA_Spies_Packetbeat_Dashboard_Prod",
      "hits": 0,
      "description": "",
      "panelsJSON": "[{\"panelIndex\":\"1\",\"gridData\":{\"x\":0,\"y\":4,\"w\":6,\"h\":3,\"i\":\"1\"},\"title\":\"Web Transactions\",\"id\":\"Web-transactions\",\"type\":\"visualization\",\"version\":\"6.2.4\"},{\"panelIndex\":\"2\",\"gridData\":{\"x\":6,\"y\":4,\"w\":6,\"h\":3,\"i\":\"2\"},\"title\":\"DB Transactions\",\"embeddableConfig\":{\"vis\":{\"legendOpen\":false}},\"id\":\"DB-transactions\",\"type\":\"visualization\",\"version\":\"6.2.4\"},{\"title\":\"Response Time Percentiles\",\"panelIndex\":\"5\",\"gridData\":{\"x\":0,\"y\":7,\"w\":6,\"h\":3,\"i\":\"5\"},\"id\":\"Response-times-percentiles\",\"type\":\"visualization\",\"version\":\"6.2.4\"},{\"title\":\"Errors Count Over-time\",\"panelIndex\":\"6\",\"gridData\":{\"x\":6,\"y\":7,\"w\":6,\"h\":3,\"i\":\"6\"},\"id\":\"Errors-count-over-time\",\"type\":\"visualization\",\"version\":\"6.2.4\"},{\"panelIndex\":\"7\",\"gridData\":{\"x\":3,\"y\":0,\"w\":9,\"h\":4,\"i\":\"7\"},\"title\":\"Errors vs Successful Transactions\",\"id\":\"Errors-vs-successful-transactions\",\"type\":\"visualization\",\"version\":\"6.2.4\"},{\"panelIndex\":\"12\",\"gridData\":{\"x\":0,\"y\":0,\"w\":3,\"h\":4,\"i\":\"12\"},\"id\":\"186b5980-ad78-11e9-bbc3-59a8788c8a2e\",\"title\":\"Packetbeat Navigation\",\"type\":\"visualization\",\"version\":\"6.2.4\"}]",
      "optionsJSON": "{\"darkTheme\":false,\"useMargins\":false}",
      "version": 1,
      "timeRestore": false,
      "kibanaSavedObjectMeta": {
        "searchSourceJSON": "{\"filter\":[{\"$state\":{\"store\":\"appState\"},\"meta\":{\"alias\":null,\"disabled\":false,\"index\":\"packetbeat-*\",\"key\":\"beat.hostname\",\"negate\":false,\"params\":{\"query\":\"ip-172-31-45-142.eu-west-1.compute.internal\",\"type\":\"phrase\"},\"type\":\"phrase\",\"value\":\"ip-172-31-45-142.eu-west-1.compute.internal\"},\"query\":{\"match\":{\"beat.hostname\":{\"query\":\"ip-172-31-45-142.eu-west-1.compute.internal\",\"type\":\"phrase\"}}}}],\"query\":{\"language\":\"lucene\",\"query\":{\"query_string\":{\"analyze_wildcard\":true,\"default_field\":\"*\",\"query\":\"*\"}}},\"highlightAll\":true,\"version\":true}"
      }
    }
  },
  {
    "_id": "2837cc90-ad82-11e9-bbc3-59a8788c8a2e",
    "_type": "dashboard",
    "_source": {
      "title": "CA_Spies_Packetbeat_Dashboard_UAT",
      "hits": 0,
      "description": "",
      "panelsJSON": "[{\"panelIndex\":\"1\",\"gridData\":{\"x\":0,\"y\":4,\"w\":6,\"h\":3,\"i\":\"1\"},\"title\":\"Web Transactions\",\"id\":\"Web-transactions\",\"type\":\"visualization\",\"version\":\"6.2.4\"},{\"panelIndex\":\"2\",\"gridData\":{\"x\":6,\"y\":4,\"w\":6,\"h\":3,\"i\":\"2\"},\"title\":\"DB Transactions\",\"embeddableConfig\":{\"vis\":{\"legendOpen\":false}},\"id\":\"DB-transactions\",\"type\":\"visualization\",\"version\":\"6.2.4\"},{\"title\":\"Response Time Percentiles\",\"panelIndex\":\"5\",\"gridData\":{\"x\":0,\"y\":7,\"w\":6,\"h\":3,\"i\":\"5\"},\"id\":\"Response-times-percentiles\",\"type\":\"visualization\",\"version\":\"6.2.4\"},{\"title\":\"Errors Count Over-time\",\"panelIndex\":\"6\",\"gridData\":{\"x\":6,\"y\":7,\"w\":6,\"h\":3,\"i\":\"6\"},\"id\":\"Errors-count-over-time\",\"type\":\"visualization\",\"version\":\"6.2.4\"},{\"panelIndex\":\"7\",\"gridData\":{\"x\":3,\"y\":0,\"w\":9,\"h\":4,\"i\":\"7\"},\"title\":\"Errors vs Successful Transactions\",\"id\":\"Errors-vs-successful-transactions\",\"type\":\"visualization\",\"version\":\"6.2.4\"},{\"panelIndex\":\"10\",\"gridData\":{\"x\":0,\"y\":0,\"w\":3,\"h\":4,\"i\":\"10\"},\"id\":\"3c27c810-ad80-11e9-bbc3-59a8788c8a2e\",\"title\":\"Packetbeat Navigation\",\"type\":\"visualization\",\"version\":\"6.2.4\"}]",
      "optionsJSON": "{\"darkTheme\":false,\"useMargins\":false}",
      "version": 1,
      "timeRestore": false,
      "kibanaSavedObjectMeta": {
        "searchSourceJSON": "{\"filter\":[{\"meta\":{\"index\":\"packetbeat-*\",\"type\":\"phrases\",\"key\":\"beat.hostname\",\"value\":\"ip-172-31-2-212.eu-west-1.compute.internal, ip-172-31-28-227.eu-west-1.compute.internal\",\"params\":[\"ip-172-31-2-212.eu-west-1.compute.internal\",\"ip-172-31-28-227.eu-west-1.compute.internal\"],\"negate\":false,\"disabled\":false,\"alias\":null},\"query\":{\"bool\":{\"should\":[{\"match_phrase\":{\"beat.hostname\":\"ip-172-31-2-212.eu-west-1.compute.internal\"}},{\"match_phrase\":{\"beat.hostname\":\"ip-172-31-28-227.eu-west-1.compute.internal\"}}],\"minimum_should_match\":1}},\"$state\":{\"store\":\"appState\"}}],\"query\":{\"language\":\"lucene\",\"query\":{\"query_string\":{\"analyze_wildcard\":true,\"default_field\":\"*\",\"query\":\"*\"}}},\"highlightAll\":true,\"version\":true}"
      }
    }
  },
  {
    "_id": "74e44af0-ad78-11e9-bbc3-59a8788c8a2e",
    "_type": "dashboard",
    "_source": {
      "title": "CA_Spies_Packetbeat_Flows_Prod",
      "hits": 0,
      "description": "",
      "panelsJSON": "[{\"panelIndex\":\"1\",\"gridData\":{\"x\":0,\"y\":5,\"w\":6,\"h\":7,\"i\":\"1\"},\"title\":\"Top Hosts Creating Traffic\",\"id\":\"Top-hosts-creating-traffic\",\"type\":\"visualization\",\"version\":\"6.2.4\"},{\"panelIndex\":\"3\",\"gridData\":{\"x\":3,\"y\":0,\"w\":9,\"h\":5,\"i\":\"3\"},\"title\":\"Connections Over-time\",\"embeddableConfig\":{\"vis\":{\"legendOpen\":false}},\"id\":\"Connections-over-time\",\"type\":\"visualization\",\"version\":\"6.2.4\"},{\"title\":\"Top Hosts Receiving Traffic\",\"panelIndex\":\"4\",\"gridData\":{\"x\":6,\"y\":5,\"w\":6,\"h\":7,\"i\":\"4\"},\"id\":\"Top-hosts-receiving-traffic\",\"type\":\"visualization\",\"version\":\"6.2.4\"},{\"title\":\"Network Traffic Between Hosts\",\"panelIndex\":\"5\",\"gridData\":{\"x\":0,\"y\":12,\"w\":12,\"h\":7,\"i\":\"5\"},\"embeddableConfig\":{\"vis\":{\"params\":{\"sort\":{\"columnIndex\":2,\"direction\":\"desc\"}}}},\"id\":\"Network-traffic-between-your-hosts\",\"type\":\"visualization\",\"version\":\"6.2.4\"},{\"panelIndex\":\"6\",\"gridData\":{\"x\":0,\"y\":0,\"w\":3,\"h\":5,\"i\":\"6\"},\"id\":\"186b5980-ad78-11e9-bbc3-59a8788c8a2e\",\"title\":\"Packetbeat Navigation\",\"type\":\"visualization\",\"version\":\"6.2.4\"}]",
      "optionsJSON": "{\"darkTheme\":false,\"useMargins\":false}",
      "version": 1,
      "timeRestore": false,
      "kibanaSavedObjectMeta": {
        "searchSourceJSON": "{\"filter\":[],\"query\":{\"language\":\"lucene\",\"query\":{\"query_string\":{\"analyze_wildcard\":true,\"default_field\":\"*\",\"query\":\"*\"}}},\"highlightAll\":true,\"version\":true}"
      }
    }
  },
  {
    "_id": "b4cd06c0-ad82-11e9-bbc3-59a8788c8a2e",
    "_type": "dashboard",
    "_source": {
      "title": "CA_Spies_Packetbeat_Flows_UAT",
      "hits": 0,
      "description": "",
      "panelsJSON": "[{\"panelIndex\":\"1\",\"gridData\":{\"x\":0,\"y\":5,\"w\":6,\"h\":7,\"i\":\"1\"},\"id\":\"Top-hosts-creating-traffic\",\"type\":\"visualization\",\"version\":\"6.2.4\"},{\"panelIndex\":\"3\",\"gridData\":{\"x\":3,\"y\":0,\"w\":9,\"h\":5,\"i\":\"3\"},\"embeddableConfig\":{\"vis\":{\"legendOpen\":false}},\"id\":\"Connections-over-time\",\"type\":\"visualization\",\"version\":\"6.2.4\"},{\"panelIndex\":\"4\",\"gridData\":{\"x\":6,\"y\":5,\"w\":6,\"h\":7,\"i\":\"4\"},\"id\":\"Top-hosts-receiving-traffic\",\"type\":\"visualization\",\"version\":\"6.2.4\"},{\"panelIndex\":\"5\",\"gridData\":{\"x\":0,\"y\":12,\"w\":12,\"h\":7,\"i\":\"5\"},\"embeddableConfig\":{\"vis\":{\"params\":{\"sort\":{\"columnIndex\":2,\"direction\":\"desc\"}}}},\"id\":\"Network-traffic-between-your-hosts\",\"type\":\"visualization\",\"version\":\"6.2.4\"},{\"title\":\"Packetbeat Navigation\",\"panelIndex\":\"6\",\"gridData\":{\"x\":0,\"y\":0,\"w\":3,\"h\":5,\"i\":\"6\"},\"version\":\"6.2.4\",\"type\":\"visualization\",\"id\":\"3c27c810-ad80-11e9-bbc3-59a8788c8a2e\"}]",
      "optionsJSON": "{\"darkTheme\":false,\"useMargins\":false}",
      "version": 1,
      "timeRestore": false,
      "kibanaSavedObjectMeta": {
        "searchSourceJSON": "{\"filter\":[{\"meta\":{\"index\":\"packetbeat-*\",\"type\":\"phrases\",\"key\":\"beat.hostname\",\"value\":\"ip-172-31-2-212.eu-west-1.compute.internal, ip-172-31-28-227.eu-west-1.compute.internal\",\"params\":[\"ip-172-31-2-212.eu-west-1.compute.internal\",\"ip-172-31-28-227.eu-west-1.compute.internal\"],\"negate\":false,\"disabled\":false,\"alias\":null},\"query\":{\"bool\":{\"should\":[{\"match_phrase\":{\"beat.hostname\":\"ip-172-31-2-212.eu-west-1.compute.internal\"}},{\"match_phrase\":{\"beat.hostname\":\"ip-172-31-28-227.eu-west-1.compute.internal\"}}],\"minimum_should_match\":1}},\"$state\":{\"store\":\"appState\"}}],\"query\":{\"language\":\"lucene\",\"query\":{\"query_string\":{\"analyze_wildcard\":true,\"default_field\":\"*\",\"query\":\"*\"}}},\"highlightAll\":true,\"version\":true}"
      }
    }
  },
  {
    "_id": "0bf03de0-ad7a-11e9-bbc3-59a8788c8a2e",
    "_type": "dashboard",
    "_source": {
      "title": "CA_Spies_Packetbeat_MySQL_Performance_Prod",
      "hits": 0,
      "description": "",
      "panelsJSON": "[{\"panelIndex\":\"2\",\"gridData\":{\"x\":3,\"y\":0,\"w\":9,\"h\":4,\"i\":\"2\"},\"id\":\"MySQL-Methods\",\"type\":\"visualization\",\"version\":\"6.2.4\"},{\"panelIndex\":\"4\",\"gridData\":{\"x\":6,\"y\":4,\"w\":6,\"h\":3,\"i\":\"4\"},\"title\":\"MySQL Throughput\",\"id\":\"MySQL-throughput\",\"type\":\"visualization\",\"version\":\"6.2.4\"},{\"title\":\"Most Frequent MySQL Queries\",\"panelIndex\":\"5\",\"gridData\":{\"x\":0,\"y\":7,\"w\":6,\"h\":6,\"i\":\"5\"},\"embeddableConfig\":{\"vis\":{\"params\":{\"sort\":{\"columnIndex\":1,\"direction\":\"desc\"}}}},\"id\":\"Most-frequent-MySQL-queries\",\"type\":\"visualization\",\"version\":\"6.2.4\"},{\"title\":\"Slowest MySQL Queries\",\"panelIndex\":\"6\",\"gridData\":{\"x\":6,\"y\":7,\"w\":6,\"h\":6,\"i\":\"6\"},\"embeddableConfig\":{\"vis\":{\"params\":{\"sort\":{\"columnIndex\":1,\"direction\":\"desc\"}}}},\"id\":\"Slowest-MySQL-queries\",\"type\":\"visualization\",\"version\":\"6.2.4\"},{\"panelIndex\":\"9\",\"gridData\":{\"x\":0,\"y\":0,\"w\":3,\"h\":4,\"i\":\"9\"},\"title\":\"Packetbeat Navigation\",\"id\":\"186b5980-ad78-11e9-bbc3-59a8788c8a2e\",\"type\":\"visualization\",\"version\":\"6.2.4\"},{\"panelIndex\":\"10\",\"gridData\":{\"x\":0,\"y\":4,\"w\":6,\"h\":3,\"i\":\"10\"},\"title\":\"MySQL Response Times Percentiles\",\"id\":\"193e0410-ad7e-11e9-bbc3-59a8788c8a2e\",\"type\":\"visualization\",\"version\":\"6.2.4\"}]",
      "optionsJSON": "{\"darkTheme\":false,\"useMargins\":false}",
      "version": 1,
      "timeRestore": false,
      "kibanaSavedObjectMeta": {
        "searchSourceJSON": "{\"filter\":[],\"query\":{\"language\":\"lucene\",\"query\":{\"query_string\":{\"analyze_wildcard\":true,\"default_field\":\"*\",\"query\":\"*\"}}},\"highlightAll\":true,\"version\":true}"
      }
    }
  },
  {
    "_id": "e1e8eb50-ad83-11e9-bbc3-59a8788c8a2e",
    "_type": "dashboard",
    "_source": {
      "title": "CA_Spies_Packetbeat_MySQL_performance_UAT",
      "hits": 0,
      "description": "",
      "panelsJSON": "[{\"panelIndex\":\"2\",\"gridData\":{\"x\":3,\"y\":0,\"w\":9,\"h\":4,\"i\":\"2\"},\"id\":\"MySQL-Methods\",\"type\":\"visualization\",\"version\":\"6.2.4\"},{\"panelIndex\":\"4\",\"gridData\":{\"x\":6,\"y\":4,\"w\":6,\"h\":3,\"i\":\"4\"},\"id\":\"MySQL-throughput\",\"title\":\"MySQL Throughput\",\"type\":\"visualization\",\"version\":\"6.2.4\"},{\"panelIndex\":\"5\",\"gridData\":{\"x\":0,\"y\":7,\"w\":6,\"h\":6,\"i\":\"5\"},\"embeddableConfig\":{\"vis\":{\"params\":{\"sort\":{\"columnIndex\":null,\"direction\":null}}}},\"id\":\"Most-frequent-MySQL-queries\",\"type\":\"visualization\",\"version\":\"6.2.4\"},{\"panelIndex\":\"6\",\"gridData\":{\"x\":6,\"y\":7,\"w\":6,\"h\":6,\"i\":\"6\"},\"embeddableConfig\":{\"vis\":{\"params\":{\"sort\":{\"columnIndex\":null,\"direction\":null}}}},\"id\":\"Slowest-MySQL-queries\",\"type\":\"visualization\",\"version\":\"6.2.4\"},{\"panelIndex\":\"10\",\"gridData\":{\"x\":0,\"y\":4,\"w\":6,\"h\":3,\"i\":\"10\"},\"id\":\"193e0410-ad7e-11e9-bbc3-59a8788c8a2e\",\"title\":\"MySQL Response Times Percentiles\",\"type\":\"visualization\",\"version\":\"6.2.4\"},{\"title\":\"Packetbeat Navigation\",\"panelIndex\":\"11\",\"gridData\":{\"x\":0,\"y\":0,\"w\":3,\"h\":4,\"i\":\"11\"},\"id\":\"3c27c810-ad80-11e9-bbc3-59a8788c8a2e\",\"type\":\"visualization\",\"version\":\"6.2.4\"}]",
      "optionsJSON": "{\"darkTheme\":false,\"useMargins\":false}",
      "version": 1,
      "timeRestore": false,
      "kibanaSavedObjectMeta": {
        "searchSourceJSON": "{\"filter\":[{\"meta\":{\"index\":\"packetbeat-*\",\"type\":\"phrases\",\"key\":\"beat.hostname\",\"value\":\"ip-172-31-2-212.eu-west-1.compute.internal, ip-172-31-28-227.eu-west-1.compute.internal\",\"params\":[\"ip-172-31-2-212.eu-west-1.compute.internal\",\"ip-172-31-28-227.eu-west-1.compute.internal\"],\"negate\":false,\"disabled\":false,\"alias\":null},\"query\":{\"bool\":{\"should\":[{\"match_phrase\":{\"beat.hostname\":\"ip-172-31-2-212.eu-west-1.compute.internal\"}},{\"match_phrase\":{\"beat.hostname\":\"ip-172-31-28-227.eu-west-1.compute.internal\"}}],\"minimum_should_match\":1}},\"$state\":{\"store\":\"appState\"}}],\"query\":{\"language\":\"lucene\",\"query\":{\"query_string\":{\"analyze_wildcard\":true,\"default_field\":\"*\",\"query\":\"*\"}}},\"highlightAll\":true,\"version\":true}"
      }
    }
  },
  {
    "_id": "482170f0-ad79-11e9-bbc3-59a8788c8a2e",
    "_type": "dashboard",
    "_source": {
      "title": "CA_Spies_Packetbeat_Web_Transaction_Prod",
      "hits": 0,
      "description": "",
      "panelsJSON": "[{\"panelIndex\":\"1\",\"gridData\":{\"x\":3,\"y\":0,\"w\":9,\"h\":4,\"i\":\"1\"},\"title\":\"Web Transactions\",\"id\":\"Web-transactions\",\"type\":\"visualization\",\"version\":\"6.2.4\"},{\"title\":\"Total # of HTTP Transactions\",\"panelIndex\":\"5\",\"gridData\":{\"x\":0,\"y\":4,\"w\":5,\"h\":3,\"i\":\"5\"},\"embeddableConfig\":{\"vis\":{\"defaultColors\":{\"0 - 100\":\"rgb(0,104,55)\"}}},\"id\":\"Total-number-of-HTTP-transactions\",\"type\":\"visualization\",\"version\":\"6.2.4\"},{\"title\":\"Top 10 HTTP Requests\",\"panelIndex\":\"7\",\"gridData\":{\"x\":0,\"y\":7,\"w\":12,\"h\":5,\"i\":\"7\"},\"embeddableConfig\":{\"vis\":{\"params\":{\"sort\":{\"columnIndex\":null,\"direction\":null}}}},\"id\":\"Top-10-HTTP-requests\",\"type\":\"visualization\",\"version\":\"6.2.4\"},{\"title\":\"HTTP Error Codes\",\"panelIndex\":\"8\",\"gridData\":{\"x\":5,\"y\":4,\"w\":7,\"h\":3,\"i\":\"8\"},\"version\":\"6.2.4\",\"type\":\"visualization\",\"id\":\"8fc289d0-ad79-11e9-bbc3-59a8788c8a2e\"},{\"panelIndex\":\"9\",\"gridData\":{\"x\":0,\"y\":0,\"w\":3,\"h\":4,\"i\":\"9\"},\"title\":\"Packetbeat Navigation\",\"version\":\"6.2.4\",\"type\":\"visualization\",\"id\":\"186b5980-ad78-11e9-bbc3-59a8788c8a2e\"}]",
      "optionsJSON": "{\"darkTheme\":false,\"useMargins\":false}",
      "version": 1,
      "timeRestore": false,
      "kibanaSavedObjectMeta": {
        "searchSourceJSON": "{\"filter\":[],\"query\":{\"language\":\"lucene\",\"query\":{\"query_string\":{\"analyze_wildcard\":true,\"default_field\":\"*\",\"query\":\"*\"}}},\"highlightAll\":true,\"version\":true}"
      }
    }
  },
  {
    "_id": "17219a70-ad83-11e9-bbc3-59a8788c8a2e",
    "_type": "dashboard",
    "_source": {
      "title": "CA_Spies_Packetbeat_Web_Transaction_UAT",
      "hits": 0,
      "description": "",
      "panelsJSON": "[{\"panelIndex\":\"1\",\"gridData\":{\"x\":3,\"y\":0,\"w\":9,\"h\":4,\"i\":\"1\"},\"id\":\"Web-transactions\",\"type\":\"visualization\",\"version\":\"6.2.4\"},{\"panelIndex\":\"5\",\"gridData\":{\"x\":0,\"y\":4,\"w\":5,\"h\":3,\"i\":\"5\"},\"embeddableConfig\":{\"vis\":{\"defaultColors\":{\"0 - 100\":\"rgb(0,104,55)\"}}},\"id\":\"Total-number-of-HTTP-transactions\",\"type\":\"visualization\",\"version\":\"6.2.4\"},{\"panelIndex\":\"7\",\"gridData\":{\"x\":0,\"y\":7,\"w\":12,\"h\":5,\"i\":\"7\"},\"embeddableConfig\":{\"vis\":{\"params\":{\"sort\":{\"columnIndex\":null,\"direction\":null}}}},\"id\":\"Top-10-HTTP-requests\",\"type\":\"visualization\",\"version\":\"6.2.4\"},{\"title\":\"HTTP error codes\",\"panelIndex\":\"8\",\"gridData\":{\"x\":5,\"y\":4,\"w\":7,\"h\":3,\"i\":\"8\"},\"id\":\"8fc289d0-ad79-11e9-bbc3-59a8788c8a2e\",\"type\":\"visualization\",\"version\":\"6.2.4\"},{\"panelIndex\":\"9\",\"gridData\":{\"x\":0,\"y\":0,\"w\":3,\"h\":4,\"i\":\"9\"},\"id\":\"3c27c810-ad80-11e9-bbc3-59a8788c8a2e\",\"title\":\"Packetbeat Navigation\",\"type\":\"visualization\",\"version\":\"6.2.4\"}]",
      "optionsJSON": "{\"darkTheme\":false,\"useMargins\":false}",
      "version": 1,
      "timeRestore": false,
      "kibanaSavedObjectMeta": {
        "searchSourceJSON": "{\"filter\":[{\"meta\":{\"index\":\"packetbeat-*\",\"type\":\"phrases\",\"key\":\"beat.hostname\",\"value\":\"ip-172-31-2-212.eu-west-1.compute.internal, ip-172-31-28-227.eu-west-1.compute.internal\",\"params\":[\"ip-172-31-2-212.eu-west-1.compute.internal\",\"ip-172-31-28-227.eu-west-1.compute.internal\"],\"negate\":false,\"disabled\":false,\"alias\":null},\"query\":{\"bool\":{\"should\":[{\"match_phrase\":{\"beat.hostname\":\"ip-172-31-2-212.eu-west-1.compute.internal\"}},{\"match_phrase\":{\"beat.hostname\":\"ip-172-31-28-227.eu-west-1.compute.internal\"}}],\"minimum_should_match\":1}},\"$state\":{\"store\":\"appState\"}}],\"query\":{\"language\":\"lucene\",\"query\":{\"query_string\":{\"analyze_wildcard\":true,\"default_field\":\"*\",\"query\":\"*\"}}},\"highlightAll\":true,\"version\":true}"
      }
    }
  }
]