{
    "name": "CA spies Trade App",
    "description": "",
    "enforceCompleteSnapshots": false,
    "propSheet": {"properties": []},
    "templatePropSheet": {
        "name": "template",
        "properties": []
    },
    "components": [
        {
            "name": "CA spies Create Trade",
            "description": "",
            "created": 1563540797291,
            "componentType": "STANDARD",
            "ignoreQualifiers": 0,
            "importAutomatically": true,
            "useVfs": true,
            "active": true,
            "deleted": false,
            "defaultVersionType": "FULL",
            "cleanupDaysToKeep": 0,
            "cleanupCountToKeep": 0,
            "sourceConfigPluginName": "Git",
            "envPropDefs": [
                {
                    "name": "DBVERSION",
                    "label": "DBVERSION",
                    "pattern": "",
                    "type": "TEXT",
                    "value": "1.0.0",
                    "required": false,
                    "description": "Database Version",
                    "placeholder": ""
                },
                {
                    "name": "AMQVERSION",
                    "label": "AMQVERSION",
                    "pattern": "",
                    "type": "TEXT",
                    "value": "1.0.0",
                    "required": false,
                    "description": "ActiveMQ Version",
                    "placeholder": ""
                },
                {
                    "name": "DESTINATION",
                    "label": "DESTINATION",
                    "pattern": "",
                    "type": "TEXT",
                    "value": "https:\/\/uat.conygre.com:8443",
                    "required": false,
                    "description": "",
                    "placeholder": ""
                },
                {
                    "name": "NAME",
                    "label": "NAME",
                    "pattern": "",
                    "type": "TEXT",
                    "value": "ca-spies-trade-app",
                    "required": false,
                    "description": "",
                    "placeholder": ""
                },
                {
                    "name": "YAML",
                    "label": "YAML",
                    "pattern": "",
                    "type": "TEXT",
                    "value": "trades-route-uat.yaml",
                    "required": false,
                    "description": "",
                    "placeholder": ""
                }
            ],
            "resPropDefs": [],
            "versionPropDefs": [],
            "propSheetGroup": {"propSheets": [
                {
                    "name": "template",
                    "properties": []
                },
                {
                    "name": "custom",
                    "properties": []
                },
                {
                    "name": "GitComponentProperties",
                    "properties": [
                        {
                            "name": "branch",
                            "value": "master",
                            "description": "",
                            "secure": false
                        },
                        {
                            "name": "excludes",
                            "description": "",
                            "secure": false
                        },
                        {
                            "name": "extensions",
                            "description": "",
                            "secure": false
                        },
                        {
                            "name": "gitPath",
                            "value": "git",
                            "description": "",
                            "secure": false
                        },
                        {
                            "name": "includes",
                            "value": "openshift\/*",
                            "description": "",
                            "secure": false
                        },
                        {
                            "name": "password",
                            "value": "crypt_v1{AES\/CBC\/PKCS5Padding|aes128keyfmqr|biYqOtlhasuOdvRSSDLrmw==|3bCk2BiWUi7NDqtc+ICUOQ==}",
                            "description": "",
                            "secure": true
                        },
                        {
                            "name": "repoUrl",
                            "value": "https:\/\/bitbucket.org\/stevshil\/tca-docker.git",
                            "description": "",
                            "secure": false
                        },
                        {
                            "name": "saveFileExecuteBits",
                            "value": "false",
                            "description": "",
                            "secure": false
                        },
                        {
                            "name": "username",
                            "description": "",
                            "secure": false
                        },
                        {
                            "name": "watchTags",
                            "value": "false",
                            "description": "",
                            "secure": false
                        }
                    ]
                }
            ]},
            "processes": [{
                "name": "CA spies Create Project",
                "description": "",
                "defaultWorkingDir": "${p:resource\/work.dir}\/${p:component.name}",
                "takesVersion": true,
                "inventoryActionType": "ADD",
                "status": "Active",
                "configActionType": "ADD",
                "active": true,
                "path": "components\/1a8a11f9-0e79-4254-913e-64ba48692b1a\/processes\/eeac7c2e-f6a4-48ff-a002-ddf726f0fb15",
                "deleted": false,
                "propDefs": [],
                "rootActivity": {
                    "edges": [
                        {
                            "to": "Set Up Database Area",
                            "from": "Login and or Create Project",
                            "type": "SUCCESS",
                            "value": ""
                        },
                        {
                            "to": "Download Artifacts",
                            "type": "ALWAYS",
                            "value": ""
                        },
                        {
                            "to": "Set up ActiveMQ area",
                            "from": "Set Up Database Area",
                            "type": "SUCCESS",
                            "value": ""
                        },
                        {
                            "to": "Set up Trades app area",
                            "from": "Set up ActiveMQ area",
                            "type": "SUCCESS",
                            "value": ""
                        },
                        {
                            "to": "52cd0cc55ff0365728b28e5dbe1c7b",
                            "from": "Configure External Route URL",
                            "type": "SUCCESS",
                            "value": ""
                        },
                        {
                            "to": "Configure External Route URL",
                            "from": "Set up Trades app area",
                            "type": "SUCCESS",
                            "value": ""
                        },
                        {
                            "to": "Login and or Create Project",
                            "from": "Download Artifacts",
                            "type": "SUCCESS",
                            "value": ""
                        }
                    ],
                    "offsets": [
                        {
                            "name": "Configure External Route URL",
                            "x": -190,
                            "y": 950,
                            "h": 110,
                            "w": 530
                        },
                        {
                            "name": "Set up ActiveMQ area",
                            "x": -130,
                            "y": 630,
                            "h": 110,
                            "w": 410
                        },
                        {
                            "name": "Download Artifacts",
                            "x": -155,
                            "y": 150,
                            "h": 110,
                            "w": 460
                        },
                        {
                            "name": "Set Up Database Area",
                            "x": -135,
                            "y": 470,
                            "h": 110,
                            "w": 420
                        },
                        {
                            "name": "52cd0cc55ff0365728b28e5dbe1c7b",
                            "x": -10,
                            "y": 1110,
                            "h": 100,
                            "w": 170
                        },
                        {
                            "name": "Login and or Create Project",
                            "x": -170,
                            "y": 310,
                            "h": 110,
                            "w": 490
                        },
                        {
                            "name": "Set up Trades app area",
                            "x": -140,
                            "y": 790,
                            "h": 110,
                            "w": 430
                        }
                    ],
                    "layoutMode": "auto",
                    "type": "graph",
                    "name": "58ca74ff-8c0d-425a-9a4d-02164be60673",
                    "children": [
                        {
                            "type": "finish",
                            "name": "52cd0cc55ff0365728b28e5dbe1c7b",
                            "children": []
                        },
                        {
                            "allowFailure": false,
                            "useImpersonation": false,
                            "showHidden": false,
                            "impersonationUseSudo": false,
                            "pluginVersion": 30,
                            "commandName": "Download Artifacts",
                            "pluginName": "UrbanCode Deploy Versioned File Storage",
                            "properties": {
                                "directoryOffset": ".",
                                "artifactSetBaseDir": "",
                                "fileIncludePatterns": "**\/*",
                                "fileExcludePatterns": "",
                                "syncMode": "true",
                                "fullVerification": "true",
                                "setFileExecuteBits": "false",
                                "verifyFileIntegrity": "false",
                                "versionId": "${p:version.id}",
                                "serverUrl": "${p:server.url}",
                                "compId": "${p:component.id}",
                                "resId": "${p:resource.id}",
                                "charset": "",
                                "label": ""
                            },
                            "type": "plugin",
                            "name": "Download Artifacts",
                            "children": []
                        },
                        {
                            "allowFailure": false,
                            "useImpersonation": false,
                            "showHidden": false,
                            "impersonationUseSudo": false,
                            "pluginVersion": 9,
                            "commandName": "Shell",
                            "pluginName": "Shell",
                            "properties": {
                                "directoryOffset": ".",
                                "shellInterpreter": "\/bin\/bash",
                                "scriptBody": "(sleep 2; echo y) | oc login --insecure-skip-tls-verify=true -u admin -p admin ${p:DESTINATION}\r\n\r\nif ! oc project ${p:NAME}\r\nthen\r\n  oc new-project ${p:NAME}\r\nfi",
                                "runAsDaemon": "false",
                                "outputFile": ""
                            },
                            "type": "plugin",
                            "name": "Login and or Create Project",
                            "children": []
                        },
                        {
                            "allowFailure": false,
                            "useImpersonation": false,
                            "showHidden": false,
                            "impersonationUseSudo": false,
                            "pluginVersion": 9,
                            "commandName": "Shell",
                            "pluginName": "Shell",
                            "properties": {
                                "directoryOffset": "openshift",
                                "shellInterpreter": "\/bin\/bash",
                                "scriptBody": "$VERSION=${p:DBVERSION}\n\n(sleep 2; echo y) | oc login --insecure-skip-tls-verify=true -u admin -p admin ${p:DESTINATION}\n\nsed -i \"s\/VERSION\/$VERSION\/\" mysql-deploymentconfig.yaml\n\nfor file in mysql-claim0-persistentvolumeclaim.yaml mysql-imagestream.yaml mysql-deploymentconfig.yaml mysql-service.yaml\ndo\n    oc apply -f $file\ndone",
                                "runAsDaemon": "false",
                                "outputFile": ""
                            },
                            "type": "plugin",
                            "name": "Set Up Database Area",
                            "children": []
                        },
                        {
                            "allowFailure": false,
                            "useImpersonation": false,
                            "showHidden": false,
                            "impersonationUseSudo": false,
                            "pluginVersion": 9,
                            "commandName": "Shell",
                            "pluginName": "Shell",
                            "properties": {
                                "directoryOffset": "openshift",
                                "shellInterpreter": "\/bin\/bash",
                                "scriptBody": "$VERSION=${p:AMQVERSION}\n\nsed -i \"s\/VERSION\/$VERSION\/\" activemq-deploymentconfig.yaml\n\noc apply -f `echo activemq-*.yaml | sed 's\/ \/,\/g'`",
                                "runAsDaemon": "false",
                                "outputFile": ""
                            },
                            "type": "plugin",
                            "name": "Set up ActiveMQ area",
                            "children": []
                        },
                        {
                            "allowFailure": false,
                            "useImpersonation": false,
                            "showHidden": false,
                            "impersonationUseSudo": false,
                            "pluginVersion": 9,
                            "commandName": "Shell",
                            "pluginName": "Shell",
                            "properties": {
                                "directoryOffset": "openshift",
                                "shellInterpreter": "\/bin\/bash",
                                "scriptBody": "oc apply -f trades-imagestream.yaml,trades-deploymentconfig.yaml,trades-service.yaml",
                                "runAsDaemon": "false",
                                "outputFile": ""
                            },
                            "type": "plugin",
                            "name": "Set up Trades app area",
                            "children": []
                        },
                        {
                            "allowFailure": false,
                            "useImpersonation": false,
                            "showHidden": false,
                            "impersonationUseSudo": false,
                            "pluginVersion": 9,
                            "commandName": "Shell",
                            "pluginName": "Shell",
                            "properties": {
                                "directoryOffset": "openshift",
                                "shellInterpreter": "\/bin\/bash",
                                "scriptBody": "if oc get route grep -v trades\\..*\\.conygre\\.com\nthen\n    oc apply -f ${p:YAML}\nfi",
                                "runAsDaemon": "false",
                                "outputFile": ""
                            },
                            "type": "plugin",
                            "name": "Configure External Route URL",
                            "children": []
                        }
                    ]
                }
            }],
            "configTemplates": [],
            "genericProcesses": [],
            "teamMappings": [],
            "tags": []
        },
        {
            "name": "CA spies Deployment",
            "description": "Deployment of trade app",
            "created": 1563541330270,
            "componentType": "STANDARD",
            "ignoreQualifiers": 0,
            "importAutomatically": false,
            "useVfs": false,
            "active": true,
            "deleted": false,
            "defaultVersionType": "FULL",
            "cleanupDaysToKeep": 0,
            "cleanupCountToKeep": 0,
            "sourceConfigPluginName": "Docker",
            "envPropDefs": [
                {
                    "name": "Environment",
                    "label": "ENV",
                    "pattern": "",
                    "type": "TEXT",
                    "value": "UAT",
                    "required": false,
                    "description": "The Environment to deploy to",
                    "placeholder": ""
                },
                {
                    "name": "AMQDEPLOY",
                    "label": "AMQDEPLOY",
                    "pattern": "^[ynYN]",
                    "type": "TEXT",
                    "value": "n",
                    "required": true,
                    "description": "Deploy ActiveMQ container y\/n?",
                    "placeholder": ""
                },
                {
                    "name": "DBDEPLOY",
                    "label": "DBDEPLOY",
                    "pattern": "^[yYnN]",
                    "type": "TEXT",
                    "value": "n",
                    "required": true,
                    "description": "Deploy Database?",
                    "placeholder": ""
                },
                {
                    "name": "VERSION",
                    "label": "VERSION",
                    "pattern": "",
                    "type": "TEXT",
                    "value": "1.0.2",
                    "required": false,
                    "description": "Container image version",
                    "placeholder": ""
                },
                {
                    "name": "DBVERSION",
                    "label": "DBVERSION",
                    "pattern": "",
                    "type": "TEXT",
                    "value": "1.0.0",
                    "required": false,
                    "description": "Database Container Version",
                    "placeholder": ""
                },
                {
                    "name": "AMQVERSION",
                    "label": "AMQVERSION",
                    "pattern": "",
                    "type": "TEXT",
                    "value": "1.0.0",
                    "required": false,
                    "description": "ActiveMQ Container Version",
                    "placeholder": ""
                },
                {
                    "name": "DESTINATION",
                    "label": "DESTINATION",
                    "pattern": "",
                    "type": "TEXT",
                    "value": "https:\/\/uat.conygre.com:8443",
                    "required": false,
                    "description": "",
                    "placeholder": ""
                },
                {
                    "name": "NAME",
                    "label": "NAME",
                    "pattern": "",
                    "type": "TEXT",
                    "value": "ca-spies-trade-app",
                    "required": false,
                    "description": "",
                    "placeholder": ""
                },
                {
                    "name": "YAML",
                    "label": "YAML",
                    "pattern": "",
                    "type": "TEXT",
                    "value": "trades-route-uat.yaml",
                    "required": false,
                    "description": "",
                    "placeholder": ""
                }
            ],
            "resPropDefs": [],
            "versionPropDefs": [
                {
                    "name": "dockerImageTag",
                    "label": "dockerImageTag",
                    "pattern": "",
                    "type": "TEXT",
                    "required": false,
                    "description": "",
                    "placeholder": ""
                },
                {
                    "name": "dockerImageId",
                    "label": "dockerImageId",
                    "pattern": "",
                    "type": "TEXT",
                    "required": false,
                    "description": "",
                    "placeholder": ""
                },
                {
                    "name": "license",
                    "label": "license",
                    "pattern": "",
                    "type": "TEXT",
                    "required": false,
                    "description": "",
                    "placeholder": ""
                },
                {
                    "name": "Description",
                    "label": "Description",
                    "pattern": "",
                    "type": "TEXT",
                    "required": false,
                    "description": "",
                    "placeholder": ""
                },
                {
                    "name": "build-date",
                    "label": "build-date",
                    "pattern": "",
                    "type": "TEXT",
                    "required": false,
                    "description": "",
                    "placeholder": ""
                },
                {
                    "name": "Version",
                    "label": "Version",
                    "pattern": "",
                    "type": "TEXT",
                    "required": false,
                    "description": "",
                    "placeholder": ""
                },
                {
                    "name": "vendor",
                    "label": "vendor",
                    "pattern": "",
                    "type": "TEXT",
                    "required": false,
                    "description": "",
                    "placeholder": ""
                },
                {
                    "name": "name",
                    "label": "name",
                    "pattern": "",
                    "type": "TEXT",
                    "required": false,
                    "description": "",
                    "placeholder": ""
                }
            ],
            "propSheetGroup": {"propSheets": [
                {
                    "name": "custom",
                    "properties": []
                },
                {
                    "name": "template",
                    "properties": []
                },
                {
                    "name": "DockerTagImport",
                    "properties": [
                        {
                            "name": "allowInsecure",
                            "value": "true",
                            "description": "",
                            "secure": false
                        },
                        {
                            "name": "api",
                            "description": "",
                            "secure": false
                        },
                        {
                            "name": "awsCli",
                            "description": "",
                            "secure": false
                        },
                        {
                            "name": "dockerHome",
                            "description": "",
                            "secure": false
                        },
                        {
                            "name": "dockerImageName",
                            "value": "trades\/server",
                            "description": "",
                            "secure": false
                        },
                        {
                            "name": "dockerRegistryAPIKey",
                            "value": "crypt_v1{AES\/CBC\/PKCS5Padding|aes128keyfmqr|GniB19\/3zCwGpk36KDnjPw==|1\/fkp0IVBrWoAbvoYCcZNQ==}",
                            "description": "",
                            "secure": true
                        },
                        {
                            "name": "dockerRegistryName",
                            "value": "dockerreg.training.local:5000",
                            "description": "",
                            "secure": false
                        },
                        {
                            "name": "dockerRegistryPassword",
                            "value": "crypt_v1{AES\/CBC\/PKCS5Padding|aes128keyfmqr|CqB2weq0KQFIEcznmN5VJQ==|oOlXpurJnjsQvYfQwvAA5dLzjFsxbLkpEzYUJWClLvU=}",
                            "description": "",
                            "secure": true
                        },
                        {
                            "name": "dockerRegistryUsername",
                            "description": "",
                            "secure": false
                        },
                        {
                            "name": "namingConvention",
                            "value": "hyphenated",
                            "description": "",
                            "secure": false
                        },
                        {
                            "name": "org",
                            "description": "",
                            "secure": false
                        },
                        {
                            "name": "regexForTag",
                            "description": "",
                            "secure": false
                        },
                        {
                            "name": "region",
                            "description": "",
                            "secure": false
                        },
                        {
                            "name": "registryType",
                            "value": "false",
                            "description": "",
                            "secure": false
                        },
                        {
                            "name": "space",
                            "description": "",
                            "secure": false
                        }
                    ]
                }
            ]},
            "processes": [{
                "name": "CA spies TradeApp Deployment",
                "description": "",
                "defaultWorkingDir": "${p:resource\/work.dir}\/${p:component.name}",
                "takesVersion": true,
                "inventoryActionType": "ADD",
                "status": "Active",
                "configActionType": "ADD",
                "active": true,
                "path": "components\/5a7e2264-1898-403b-b9e6-d9cb22cd93e1\/processes\/6902a7fb-0ca2-48df-8259-e921cec21441",
                "deleted": false,
                "propDefs": [],
                "rootActivity": {
                    "edges": [
                        {
                            "to": "Deploy Database",
                            "from": "Deploy ActiveMQ",
                            "type": "SUCCESS",
                            "value": ""
                        },
                        {
                            "to": "Deploy ActiveMQ",
                            "from": "Get latest container",
                            "type": "SUCCESS",
                            "value": ""
                        },
                        {
                            "to": "6a63014652507cc55a5787ea8be88a",
                            "from": "Deploy Trade Server",
                            "type": "SUCCESS",
                            "value": ""
                        },
                        {
                            "to": "Get latest container",
                            "type": "ALWAYS",
                            "value": ""
                        },
                        {
                            "to": "Deploy Trade Server",
                            "from": "Deploy Database",
                            "type": "SUCCESS",
                            "value": ""
                        }
                    ],
                    "offsets": [
                        {
                            "name": "Deploy Trade Server",
                            "x": -110,
                            "y": 630,
                            "h": 110,
                            "w": 370
                        },
                        {
                            "name": "6a63014652507cc55a5787ea8be88a",
                            "x": -5,
                            "y": 790,
                            "h": 100,
                            "w": 160
                        },
                        {
                            "name": "Deploy ActiveMQ",
                            "x": -90,
                            "y": 310,
                            "h": 110,
                            "w": 330
                        },
                        {
                            "name": "Deploy Database",
                            "x": -90,
                            "y": 470,
                            "h": 110,
                            "w": 330
                        },
                        {
                            "name": "Get latest container",
                            "x": -105,
                            "y": 150,
                            "h": 110,
                            "w": 360
                        }
                    ],
                    "layoutMode": "auto",
                    "type": "graph",
                    "name": "87ec3384-5887-461a-bce6-2fd49ab50c88",
                    "children": [
                        {
                            "type": "finish",
                            "name": "6a63014652507cc55a5787ea8be88a",
                            "children": []
                        },
                        {
                            "allowFailure": false,
                            "useImpersonation": false,
                            "showHidden": false,
                            "impersonationUseSudo": false,
                            "pluginVersion": 9,
                            "commandName": "Shell",
                            "pluginName": "Shell",
                            "properties": {
                                "directoryOffset": ".",
                                "shellInterpreter": "\/bin\/bash",
                                "scriptBody": "#!\/bin\/bash\n\n# Deploy latest version\nVERSION=`echo ${p:version.name} | sed 's\/ -.*$\/\/'`\n\n# Connect to trades application\n(sleep 2; echo y) | oc login --insecure-skip-tls-verify=true -u admin -p admin ${p:DESTINATION}\n\noc project ${p:NAME}\n\n# Pull docker images\ndocker pull dockerreg.conygre.com:5000\/trades\/activemq:${p:AMQVERSION}\ndocker pull dockerreg.conygre.com:5000\/trades\/mysql:${p:DBVERSION}\ndocker pull dockerreg.conygre.com:5000\/trades\/server:$VERSION",
                                "runAsDaemon": "false",
                                "outputFile": ""
                            },
                            "type": "plugin",
                            "name": "Get latest container",
                            "children": []
                        },
                        {
                            "allowFailure": false,
                            "useImpersonation": false,
                            "showHidden": false,
                            "impersonationUseSudo": false,
                            "pluginVersion": 9,
                            "commandName": "Shell",
                            "pluginName": "Shell",
                            "properties": {
                                "directoryOffset": ".",
                                "shellInterpreter": "",
                                "scriptBody": "#!\/bin\/bash\n\n# Deploy ActiveMQ\n\nif [[ ${p:AMQDEPLOY} == 'y' ]]\nthen\n\n    # Set the trades image stream\n    cat >is.yml <<__END__\napiVersion: v1\nkind: ImageStream\nmetadata:\n  creationTimestamp: null\n  labels:\n    io.kompose.service: activemq\n  name: activemq\nspec:\n  lookupPolicy:\n    local: false\n  tags:\n  - annotations: null\n    from:\n      kind: DockerImage\n      name: dockerreg.conygre.com:5000\/trades\/activemq:${p:AMQVERSION}\n    generation: null\n    importPolicy:\n      insecure: true\n    name: ${p:AMQVERSION}\nstatus:\n  dockerImageRepository: \"\"\n__END__\n\n    oc apply -f is.yml\n    \n    oc rollout latest dc\/activemq || echo \"Deployment already in progress\"\nfi",
                                "runAsDaemon": "false",
                                "outputFile": ""
                            },
                            "type": "plugin",
                            "name": "Deploy ActiveMQ",
                            "children": []
                        },
                        {
                            "allowFailure": false,
                            "useImpersonation": false,
                            "showHidden": false,
                            "impersonationUseSudo": false,
                            "pluginVersion": 9,
                            "commandName": "Shell",
                            "pluginName": "Shell",
                            "properties": {
                                "directoryOffset": ".",
                                "shellInterpreter": "",
                                "scriptBody": "#!\/bin\/bash\n\n# Deploy ActiveMQ\n\nif [[ ${p:DBDEPLOY} == 'y' ]]\nthen\n    # Set the trades image stream\n    cat >is.yml <<__END__\napiVersion: v1\nkind: ImageStream\nmetadata:\n  creationTimestamp: null\n  labels:\n    io.kompose.service: mysql\n  name: mysql\nspec:\n  lookupPolicy:\n    local: false\n  tags:\n  - annotations: null\n    from:\n      kind: DockerImage\n      name: dockerreg.conygre.com:5000\/trades\/mysql:${p:DBVERSION}\n    generation: null\n    importPolicy:\n      insecure: true\n    name: ${p:DBVERSION}\nstatus:\n  dockerImageRepository: \"\"\n__END__\n\n    oc apply -f is.yml\n    \n    oc rollout latest dc\/mysql || echo \"Deployment already in progress\"\nfi",
                                "runAsDaemon": "false",
                                "outputFile": ""
                            },
                            "type": "plugin",
                            "name": "Deploy Database",
                            "children": []
                        },
                        {
                            "allowFailure": false,
                            "useImpersonation": false,
                            "showHidden": false,
                            "impersonationUseSudo": false,
                            "pluginVersion": 9,
                            "commandName": "Shell",
                            "pluginName": "Shell",
                            "properties": {
                                "directoryOffset": ".",
                                "shellInterpreter": "",
                                "scriptBody": "#!\/bin\/bash\n\nVERSION=`echo ${p:version.name} | sed 's\/ -.*$\/\/'`\n\n# Set the trades image stream\ncat >is.yml <<__END__\napiVersion: v1\nkind: ImageStream\nmetadata:\n  creationTimestamp: null\n  labels:\n    io.kompose.service: trades\n  name: trades\nspec:\n  lookupPolicy:\n    local: false\n  tags:\n  - annotations: null\n    from:\n      kind: DockerImage\n      name: dockerreg.conygre.com:5000\/trades\/server:$VERSION\n    generation: null\n    importPolicy:\n      insecure: true\n    name: $VERSION\nstatus:\n  dockerImageRepository: \"\"\n__END__\n\noc apply -f is.yml\n\noc rollout latest dc\/trades || echo \"Deployment already in progress\"",
                                "runAsDaemon": "false",
                                "outputFile": ""
                            },
                            "type": "plugin",
                            "name": "Deploy Trade Server",
                            "children": []
                        }
                    ]
                }
            }],
            "configTemplates": [],
            "genericProcesses": [],
            "teamMappings": [],
            "tags": []
        }
    ],
    "environments": [
        {
            "name": "CA spies UAT",
            "description": "pre-prod Environment",
            "color": "#DD731C",
            "requireApprovals": false,
            "noSelfApprovals": false,
            "exemptProcesses": [],
            "lockSnapshots": false,
            "cleanupDaysToKeep": 0,
            "cleanupCountToKeep": 0,
            "enableProcessHistoryCleanup": true,
            "useSystemDefaultDays": true,
            "historyCleanupDaysToKeep": 365,
            "order": 0,
            "active": true,
            "propSheet": {"properties": []},
            "templatePropSheet": {
                "name": "template",
                "properties": []
            },
            "baseResources": [{
                "path": "\/CA spies Trade app\/UAT",
                "id": "383672b0-e00c-4ae7-853f-dadb4f438d29"
            }],
            "componentPropSheets": [
                {
                    "properties": [
                        {
                            "name": "AMQVERSION",
                            "value": "1.0.0",
                            "description": "",
                            "secure": false
                        },
                        {
                            "name": "DBVERSION",
                            "value": "1.0.0",
                            "description": "",
                            "secure": false
                        },
                        {
                            "name": "DESTINATION",
                            "value": "https:\/\/uat.conygre.com:8443",
                            "description": "",
                            "secure": false
                        },
                        {
                            "name": "NAME",
                            "value": "ca-spies-trade-app",
                            "description": "",
                            "secure": false
                        },
                        {
                            "name": "YAML",
                            "value": "trades-route-uat.yaml",
                            "description": "",
                            "secure": false
                        }
                    ],
                    "componentName": "CA spies Create Trade"
                },
                {
                    "properties": [
                        {
                            "name": "AMQDEPLOY",
                            "value": "y",
                            "description": "",
                            "secure": false
                        },
                        {
                            "name": "AMQVERSION",
                            "value": "1.0.0",
                            "description": "",
                            "secure": false
                        },
                        {
                            "name": "DBDEPLOY",
                            "value": "y",
                            "description": "",
                            "secure": false
                        },
                        {
                            "name": "DBVERSION",
                            "value": "1.0.0",
                            "description": "",
                            "secure": false
                        },
                        {
                            "name": "DESTINATION",
                            "value": "https:\/\/uat.conygre.com:8443",
                            "description": "",
                            "secure": false
                        },
                        {
                            "name": "Environment",
                            "value": "TEST",
                            "description": "",
                            "secure": false
                        },
                        {
                            "name": "NAME",
                            "value": "ca-spies-trade-app",
                            "description": "",
                            "secure": false
                        },
                        {
                            "name": "VERSION",
                            "value": "1.0.2",
                            "description": "",
                            "secure": false
                        },
                        {
                            "name": "YAML",
                            "value": "trades-route-uat.yaml",
                            "description": "",
                            "secure": false
                        }
                    ],
                    "componentName": "CA spies Deployment "
                }
            ],
            "versionConditions": [],
            "teamMappings": []
        },
        {
            "name": "CA spies PROD",
            "description": "",
            "color": "#D9182D",
            "requireApprovals": false,
            "noSelfApprovals": false,
            "exemptProcesses": [],
            "lockSnapshots": false,
            "cleanupDaysToKeep": 0,
            "cleanupCountToKeep": 0,
            "enableProcessHistoryCleanup": true,
            "useSystemDefaultDays": true,
            "historyCleanupDaysToKeep": 365,
            "order": 1,
            "active": true,
            "propSheet": {"properties": []},
            "templatePropSheet": {
                "name": "template",
                "properties": []
            },
            "baseResources": [{
                "path": "\/CA spies Trade app\/PROD",
                "id": "92567793-a2e2-4ef7-a9aa-7b10bb4ae602"
            }],
            "componentPropSheets": [
                {
                    "properties": [
                        {
                            "name": "AMQVERSION",
                            "value": "1.0.0",
                            "description": "",
                            "secure": false
                        },
                        {
                            "name": "DBVERSION",
                            "value": "1.0.0",
                            "description": "",
                            "secure": false
                        },
                        {
                            "name": "DESTINATION",
                            "value": "https:\/\/appsrvprod.conygre.com:8443",
                            "description": "",
                            "secure": false
                        },
                        {
                            "name": "NAME",
                            "value": "ca-spies-trade-app",
                            "description": "",
                            "secure": false
                        },
                        {
                            "name": "YAML",
                            "value": "trades-route-prod.yaml",
                            "description": "",
                            "secure": false
                        }
                    ],
                    "componentName": "CA spies Create Trade"
                },
                {
                    "properties": [
                        {
                            "name": "AMQDEPLOY",
                            "value": "y",
                            "description": "",
                            "secure": false
                        },
                        {
                            "name": "AMQVERSION",
                            "value": "1.0.0",
                            "description": "",
                            "secure": false
                        },
                        {
                            "name": "DBDEPLOY",
                            "value": "y",
                            "description": "",
                            "secure": false
                        },
                        {
                            "name": "DBVERSION",
                            "value": "1.0.0",
                            "description": "",
                            "secure": false
                        },
                        {
                            "name": "DESTINATION",
                            "value": "https:\/\/appsrvprod.conygre.com:8443",
                            "description": "",
                            "secure": false
                        },
                        {
                            "name": "Environment",
                            "value": "PROD",
                            "description": "",
                            "secure": false
                        },
                        {
                            "name": "NAME",
                            "value": "ca-spies-trade-app",
                            "description": "",
                            "secure": false
                        },
                        {
                            "name": "VERSION",
                            "value": "1.0.2",
                            "description": "",
                            "secure": false
                        },
                        {
                            "name": "YAML",
                            "value": "trades-route-prod.yaml",
                            "description": "",
                            "secure": false
                        }
                    ],
                    "componentName": "CA spies Deployment "
                }
            ],
            "versionConditions": [],
            "teamMappings": []
        }
    ],
    "statuses": [],
    "processes": [{
        "name": "CA spies deploy",
        "description": "",
        "inventoryManagementType": "AUTOMATIC",
        "offlineAgentHandling": "PRE_EXECUTION_CHECK",
        "rootActivity": {
            "edges": [
                {
                    "to": "504590c3ce336f0fbdabfbdde3400b",
                    "type": "ALWAYS",
                    "value": ""
                },
                {
                    "to": "30edc01c4df3b33c1a1ba2de296861",
                    "from": "504590c3ce336f0fbdabfbdde3400b",
                    "type": "SUCCESS",
                    "value": ""
                },
                {
                    "to": "84b8279bac7bde434a92e9e5313ed5",
                    "from": "30edc01c4df3b33c1a1ba2de296861",
                    "type": "SUCCESS",
                    "value": ""
                }
            ],
            "offsets": [
                {
                    "name": "504590c3ce336f0fbdabfbdde3400b",
                    "x": -2.999999999999943,
                    "y": 146,
                    "h": 80,
                    "w": 370
                },
                {
                    "name": "84b8279bac7bde434a92e9e5313ed5",
                    "x": -165,
                    "y": 600,
                    "h": 90,
                    "w": 130
                },
                {
                    "name": "30edc01c4df3b33c1a1ba2de296861",
                    "x": -93.46322381536834,
                    "y": 330.9034459096682,
                    "h": 100,
                    "w": 430
                }
            ],
            "layoutMode": "manual",
            "type": "graph",
            "name": "69ea6d92-ce95-427d-872d-4e56d0cdd78a",
            "children": [
                {
                    "type": "finish",
                    "name": "84b8279bac7bde434a92e9e5313ed5",
                    "children": []
                },
                {
                    "componentName": "CA spies Create Trade",
                    "properties": [
                        {
                            "name": "maxIteration",
                            "value": "-1"
                        },
                        {
                            "name": "failFast",
                            "value": "false"
                        }
                    ],
                    "type": "componentEnvironmentIterator",
                    "name": "504590c3ce336f0fbdabfbdde3400b",
                    "children": [{
                        "componentName": "CA spies Create Trade",
                        "status": "Active",
                        "type": "inventoryVersionDiff",
                        "name": "60881d38-a20d-4b46-a3dc-92f212e41b3d",
                        "children": [{
                            "componentProcessName": "CA spies Create Project",
                            "componentName": "CA spies Create Trade",
                            "allowFailure": false,
                            "properties": {},
                            "type": "componentProcess",
                            "name": "Install: \"CA spies Create Trade\"",
                            "children": []
                        }]
                    }]
                },
                {
                    "componentName": "CA spies Deployment",
                    "properties": [
                        {
                            "name": "maxIteration",
                            "value": "-1"
                        },
                        {
                            "name": "failFast",
                            "value": "false"
                        }
                    ],
                    "type": "componentEnvironmentIterator",
                    "name": "30edc01c4df3b33c1a1ba2de296861",
                    "children": [{
                        "componentName": "CA spies Deployment",
                        "status": "Active",
                        "type": "inventoryVersionDiff",
                        "name": "a64c31ae-3162-40da-a842-8ba274edd9ba",
                        "children": [{
                            "componentProcessName": "CA spies TradeApp Deployment",
                            "componentName": "CA spies Deployment",
                            "allowFailure": false,
                            "properties": {},
                            "type": "componentProcess",
                            "name": "Install: \"CA spies Deployment\"",
                            "children": []
                        }]
                    }]
                }
            ]
        },
        "propDefs": [],
        "versionPresets": []
    }],
    "genericProcesses": [],
    "teamMappings": [],
    "tags": []
}