{
    "name": "CA Blue",
    "description": "",
    "enforceCompleteSnapshots": false,
    "propSheet": {"properties": []},
    "templatePropSheet": {
        "name": "template",
        "properties": []
    },
    "components": [{
        "name": "ca-blue",
        "description": "",
        "created": 1563910992214,
        "componentType": "STANDARD",
        "ignoreQualifiers": 0,
        "importAutomatically": false,
        "useVfs": true,
        "active": true,
        "deleted": false,
        "defaultVersionType": "FULL",
        "cleanupDaysToKeep": 0,
        "cleanupCountToKeep": 0,
        "sourceConfigPluginName": "Git",
        "envPropDefs": [
            {
                "name": "DEST",
                "label": "DEST",
                "pattern": "",
                "type": "TEXT",
                "required": false,
                "description": "",
                "placeholder": ""
            },
            {
                "name": "PROJ",
                "label": "PROJ",
                "pattern": "",
                "type": "TEXT",
                "required": false,
                "description": "",
                "placeholder": ""
            },
            {
                "name": "CANAME",
                "label": "CANAME",
                "pattern": "",
                "type": "TEXT",
                "required": false,
                "description": "",
                "placeholder": ""
            },
            {
                "name": "PRICINGSERVICE",
                "label": "PRICINGSERVICE",
                "pattern": "",
                "type": "TEXT",
                "required": false,
                "description": "",
                "placeholder": ""
            },
            {
                "name": "BROKERURL",
                "label": "BROKERURL",
                "pattern": "",
                "type": "TEXT",
                "required": false,
                "description": "",
                "placeholder": ""
            },
            {
                "name": "NOTIFICATIONQUEUE",
                "label": "NOTIFICATIONQUEUE",
                "pattern": "",
                "type": "TEXT",
                "required": false,
                "description": "",
                "placeholder": ""
            },
            {
                "name": "DATABASEURL",
                "label": "DATABASEURL",
                "pattern": "",
                "type": "TEXT",
                "required": false,
                "description": "",
                "placeholder": ""
            },
            {
                "name": "DATABASEUSERNAME",
                "label": "DATABASEUSERNAME",
                "pattern": "",
                "type": "TEXT",
                "required": false,
                "description": "",
                "placeholder": ""
            },
            {
                "name": "DATABASEPASSWORD",
                "label": "DATABASEPASSWORD",
                "pattern": "",
                "type": "TEXT",
                "required": false,
                "description": "",
                "placeholder": ""
            }
        ],
        "resPropDefs": [],
        "versionPropDefs": [],
        "propSheetGroup": {"propSheets": [
            {
                "name": "custom",
                "properties": []
            },
            {
                "name": "template",
                "properties": []
            },
            {
                "name": "GitComponentProperties",
                "properties": [
                    {
                        "name": "branch",
                        "value": "ProductionSupport",
                        "description": "",
                        "secure": false
                    },
                    {
                        "name": "excludes",
                        "description": "",
                        "secure": false
                    },
                    {
                        "name": "extensions",
                        "description": "",
                        "secure": false
                    },
                    {
                        "name": "gitPath",
                        "value": "git",
                        "description": "",
                        "secure": false
                    },
                    {
                        "name": "includes",
                        "value": "yamls\/*\n**\/*\n",
                        "description": "",
                        "secure": false
                    },
                    {
                        "name": "password",
                        "value": "crypt_v1{AES\/CBC\/PKCS5Padding|aes128keyfmqr|nt+XIjthNh\/b\/05OlMMFEw==|Vs58rEaXSxgC+yEJ\/E5a\/g==}",
                        "description": "",
                        "secure": true
                    },
                    {
                        "name": "repoUrl",
                        "value": "https:\/\/bitbucket.org\/suran6918\/srktradingplatform.git",
                        "description": "",
                        "secure": false
                    },
                    {
                        "name": "saveFileExecuteBits",
                        "value": "false",
                        "description": "",
                        "secure": false
                    },
                    {
                        "name": "username",
                        "description": "",
                        "secure": false
                    },
                    {
                        "name": "watchTags",
                        "value": "false",
                        "description": "",
                        "secure": false
                    }
                ]
            }
        ]},
        "processes": [{
            "name": "Blue-Deployment",
            "description": "",
            "defaultWorkingDir": "${p:resource\/work.dir}\/${p:component.name}",
            "takesVersion": true,
            "inventoryActionType": "ADD",
            "status": "Active",
            "configActionType": "ADD",
            "active": true,
            "path": "components\/4f6964eb-172c-4337-a044-5822b5443274\/processes\/e3925791-d67d-464b-9b31-64bf106eb483",
            "deleted": false,
            "propDefs": [],
            "rootActivity": {
                "edges": [
                    {
                        "to": "Shell - YAML",
                        "from": "Shell - ENV",
                        "type": "SUCCESS",
                        "value": ""
                    },
                    {
                        "to": "Shell - build",
                        "from": "Login and or Create Project",
                        "type": "SUCCESS",
                        "value": ""
                    },
                    {
                        "to": "37680ba4df92dfe62007e53ea11caf",
                        "from": "Shell - YAML",
                        "type": "SUCCESS",
                        "value": ""
                    },
                    {
                        "to": "Download Artifacts",
                        "type": "ALWAYS",
                        "value": ""
                    },
                    {
                        "to": "Shell - ENV",
                        "from": "Shell - build",
                        "type": "SUCCESS",
                        "value": ""
                    },
                    {
                        "to": "Login and or Create Project",
                        "from": "Download Artifacts",
                        "type": "SUCCESS",
                        "value": ""
                    }
                ],
                "offsets": [
                    {
                        "name": "Shell - ENV",
                        "x": -25,
                        "y": 490,
                        "h": 70,
                        "w": 160
                    },
                    {
                        "name": "Download Artifacts",
                        "x": -75,
                        "y": 130,
                        "h": 70,
                        "w": 260
                    },
                    {
                        "name": "37680ba4df92dfe62007e53ea11caf",
                        "x": -5,
                        "y": 730,
                        "h": 80,
                        "w": 120
                    },
                    {
                        "name": "Login and or Create Project",
                        "x": -80,
                        "y": 250,
                        "h": 70,
                        "w": 270
                    },
                    {
                        "name": "Shell - build",
                        "x": -30,
                        "y": 370,
                        "h": 70,
                        "w": 170
                    },
                    {
                        "name": "Shell - YAML",
                        "x": -35,
                        "y": 610,
                        "h": 70,
                        "w": 180
                    }
                ],
                "layoutMode": "auto",
                "type": "graph",
                "name": "96badc78-e67c-4afc-b6b5-da10f4139e95",
                "children": [
                    {
                        "type": "finish",
                        "name": "37680ba4df92dfe62007e53ea11caf",
                        "children": []
                    },
                    {
                        "allowFailure": false,
                        "useImpersonation": false,
                        "showHidden": false,
                        "impersonationUseSudo": false,
                        "pluginVersion": 30,
                        "commandName": "Download Artifacts",
                        "pluginName": "UrbanCode Deploy Versioned File Storage",
                        "properties": {
                            "directoryOffset": ".",
                            "artifactSetBaseDir": "",
                            "fileIncludePatterns": "**\/*",
                            "fileExcludePatterns": "",
                            "syncMode": "true",
                            "fullVerification": "true",
                            "setFileExecuteBits": "false",
                            "verifyFileIntegrity": "false",
                            "versionId": "${p:version.id}",
                            "serverUrl": "${p:server.url}",
                            "compId": "${p:component.id}",
                            "resId": "${p:resource.id}",
                            "charset": "",
                            "label": ""
                        },
                        "type": "plugin",
                        "name": "Download Artifacts",
                        "children": []
                    },
                    {
                        "allowFailure": false,
                        "useImpersonation": false,
                        "showHidden": false,
                        "impersonationUseSudo": false,
                        "pluginVersion": 9,
                        "commandName": "Shell",
                        "pluginName": "Shell",
                        "properties": {
                            "directoryOffset": ".",
                            "shellInterpreter": "\/bin\/bash",
                            "scriptBody": "(sleep 2; echo y) | oc login --insecure-skip-tls-verify=true -u admin -p admin ${p:DEST}\r\n\r\nif ! oc project ${p:PROJ}\r\nthen\r\n  oc new-project ${p:PROJ}\r\nfi\r\n\r\necho $pwd",
                            "runAsDaemon": "false",
                            "outputFile": ""
                        },
                        "type": "plugin",
                        "name": "Login and or Create Project",
                        "children": []
                    },
                    {
                        "allowFailure": false,
                        "useImpersonation": false,
                        "showHidden": false,
                        "impersonationUseSudo": false,
                        "pluginVersion": 9,
                        "commandName": "Shell",
                        "pluginName": "Shell",
                        "properties": {
                            "directoryOffset": ".",
                            "shellInterpreter": "\/bin\/bash",
                            "scriptBody": "oc login --insecure-skip-tls-verify=true -u admin -p admin ${p:DEST}\noc project ${p:PROJ}\n\n\noc new-build --strategy docker --binary --name ${p:PROJ} || echo \"Build already exists\"\noc start-build ${p:PROJ} --from-dir=\/opt\/ibm-ucd\/agent\/var\/work\/${P:CANAME}\necho $pwd\n\nls -la",
                            "runAsDaemon": "false",
                            "outputFile": ""
                        },
                        "type": "plugin",
                        "name": "Shell - build",
                        "children": []
                    },
                    {
                        "allowFailure": false,
                        "useImpersonation": false,
                        "showHidden": false,
                        "impersonationUseSudo": false,
                        "pluginVersion": 9,
                        "commandName": "Shell",
                        "pluginName": "Shell",
                        "properties": {
                            "directoryOffset": "yamls",
                            "shellInterpreter": "\/bin\/bash",
                            "scriptBody": "oc login --insecure-skip-tls-verify=true -u admin -p admin ${p:DEST}\noc project ${p:PROJ}\n\noc apply -f deploymentconfig.yaml\noc apply -f service.yaml\noc apply -f route.yaml\n\necho $pwd",
                            "runAsDaemon": "false",
                            "outputFile": ""
                        },
                        "type": "plugin",
                        "name": "Shell - YAML",
                        "children": []
                    },
                    {
                        "allowFailure": false,
                        "useImpersonation": false,
                        "showHidden": false,
                        "impersonationUseSudo": false,
                        "pluginVersion": 9,
                        "commandName": "Shell",
                        "pluginName": "Shell",
                        "properties": {
                            "directoryOffset": ".",
                            "shellInterpreter": "\/bin\/bash",
                            "scriptBody": "oc login --insecure-skip-tls-verify=true -u admin -p admin ${p:DEST}\noc project ${p:PROJ}\n\noc set env dc\/${p:PROJ} OPENSHIFT_PRICING_SERVICE=${p:PRICINGSERVICE}\noc set env dc\/${p:PROJ} OPENSHIFT_BROKER_URL=${p:BROKERURL}\noc set env dc\/${p:PROJ} OPENSHIFT_NOTIFICATION_QUEUE=${p:NOTIFICATIONQUEUE}\noc set env dc\/${p:PROJ} OPENSHIFT_DATABASE_URL=${p:DATABASEURL}\noc set env dc\/${p:PROJ} OPENSHIFT_DATABASE_USERNAME=${p:DATABASEUSERNAME}\noc set env dc\/${p:PROJ} OPENSHIFT_DATABASE_PASSWORD=${p:DATABASEPASSWORD}",
                            "runAsDaemon": "false",
                            "outputFile": ""
                        },
                        "type": "plugin",
                        "name": "Shell - ENV",
                        "children": []
                    }
                ]
            }
        }],
        "configTemplates": [],
        "genericProcesses": [],
        "teamMappings": [],
        "tags": []
    }],
    "environments": [{
        "name": "Prod",
        "description": "",
        "color": "#00648D",
        "requireApprovals": false,
        "noSelfApprovals": false,
        "exemptProcesses": [],
        "lockSnapshots": false,
        "cleanupDaysToKeep": 0,
        "cleanupCountToKeep": 0,
        "enableProcessHistoryCleanup": true,
        "useSystemDefaultDays": true,
        "historyCleanupDaysToKeep": 365,
        "order": 0,
        "active": true,
        "propSheet": {"properties": []},
        "templatePropSheet": {
            "name": "template",
            "properties": []
        },
        "baseResources": [{
            "path": "\/CA Blue\/PROD",
            "id": "4bf3c0e3-3162-43b0-b935-cb060de62188"
        }],
        "componentPropSheets": [{
            "properties": [
                {
                    "name": "BROKERURL",
                    "value": "tcp:\/\/will1.conygre.com:61616",
                    "description": "",
                    "secure": false
                },
                {
                    "name": "CANAME",
                    "value": "ca-blue",
                    "description": "",
                    "secure": false
                },
                {
                    "name": "DATABASEPASSWORD",
                    "value": "Trades",
                    "description": "",
                    "secure": false
                },
                {
                    "name": "DATABASEURL",
                    "value": "jdbc:derby:\/\/will1.conygre.com\/TradingBlue",
                    "description": "",
                    "secure": false
                },
                {
                    "name": "DATABASEUSERNAME",
                    "value": "Trades",
                    "description": "",
                    "secure": false
                },
                {
                    "name": "DEST",
                    "value": "https:\/\/appsrvprod.conygre.com:8443",
                    "description": "",
                    "secure": false
                },
                {
                    "name": "NOTIFICATIONQUEUE",
                    "value": "ca-srktradingplatform1",
                    "description": "",
                    "secure": false
                },
                {
                    "name": "PRICINGSERVICE",
                    "value": "http:\/\/will1.conygre.com:8081\/prices",
                    "description": "",
                    "secure": false
                },
                {
                    "name": "PROJ",
                    "value": "ca-srktradingplatform",
                    "description": "",
                    "secure": false
                }
            ],
            "componentName": "ca-blue"
        }],
        "versionConditions": [],
        "teamMappings": []
    }],
    "statuses": [],
    "processes": [{
        "name": "Blue deployment",
        "description": "",
        "inventoryManagementType": "AUTOMATIC",
        "offlineAgentHandling": "PRE_EXECUTION_CHECK",
        "rootActivity": {
            "edges": [
                {
                    "to": "d23ad7cf21a94f7a25abfb8f5e2892",
                    "type": "ALWAYS",
                    "value": ""
                },
                {
                    "to": "5b6490ced085650cdf945f181a72fb",
                    "from": "d23ad7cf21a94f7a25abfb8f5e2892",
                    "type": "SUCCESS",
                    "value": ""
                }
            ],
            "offsets": [
                {
                    "name": "d23ad7cf21a94f7a25abfb8f5e2892",
                    "x": -50,
                    "y": 230,
                    "h": 70,
                    "w": 260
                },
                {
                    "name": "5b6490ced085650cdf945f181a72fb",
                    "x": -5,
                    "y": 430,
                    "h": 80,
                    "w": 120
                }
            ],
            "layoutMode": "auto",
            "type": "graph",
            "name": "c6000800-2809-457b-8892-f1115012a6b0",
            "children": [
                {
                    "type": "finish",
                    "name": "5b6490ced085650cdf945f181a72fb",
                    "children": []
                },
                {
                    "componentName": "ca-blue",
                    "properties": [
                        {
                            "name": "maxIteration",
                            "value": "-1"
                        },
                        {
                            "name": "failFast",
                            "value": "false"
                        }
                    ],
                    "type": "componentEnvironmentIterator",
                    "name": "d23ad7cf21a94f7a25abfb8f5e2892",
                    "children": [{
                        "componentName": "ca-blue",
                        "status": "Active",
                        "type": "inventoryVersionDiff",
                        "name": "ad3211da-fc5d-4ddb-b569-cc18bd481b20",
                        "children": [{
                            "componentProcessName": "Blue-Deployment",
                            "componentName": "ca-blue",
                            "allowFailure": false,
                            "properties": {},
                            "type": "componentProcess",
                            "name": "Install: \"ca-blue\"",
                            "children": []
                        }]
                    }]
                }
            ]
        },
        "propDefs": [],
        "versionPresets": []
    }],
    "genericProcesses": [],
    "teamMappings": [],
    "tags": []
}