{
    "name": "ca-blue",
    "description": "",
    "created": 1563910992214,
    "componentType": "STANDARD",
    "ignoreQualifiers": 0,
    "importAutomatically": false,
    "useVfs": true,
    "active": true,
    "deleted": false,
    "defaultVersionType": "FULL",
    "cleanupDaysToKeep": 0,
    "cleanupCountToKeep": 0,
    "sourceConfigPluginName": "Git",
    "envPropDefs": [
        {
            "name": "DEST",
            "label": "DEST",
            "pattern": "",
            "type": "TEXT",
            "required": false,
            "description": "",
            "placeholder": ""
        },
        {
            "name": "PROJ",
            "label": "PROJ",
            "pattern": "",
            "type": "TEXT",
            "required": false,
            "description": "",
            "placeholder": ""
        },
        {
            "name": "CANAME",
            "label": "CANAME",
            "pattern": "",
            "type": "TEXT",
            "required": false,
            "description": "",
            "placeholder": ""
        },
        {
            "name": "PRICINGSERVICE",
            "label": "PRICINGSERVICE",
            "pattern": "",
            "type": "TEXT",
            "required": false,
            "description": "",
            "placeholder": ""
        },
        {
            "name": "BROKERURL",
            "label": "BROKERURL",
            "pattern": "",
            "type": "TEXT",
            "required": false,
            "description": "",
            "placeholder": ""
        },
        {
            "name": "NOTIFICATIONQUEUE",
            "label": "NOTIFICATIONQUEUE",
            "pattern": "",
            "type": "TEXT",
            "required": false,
            "description": "",
            "placeholder": ""
        },
        {
            "name": "DATABASEURL",
            "label": "DATABASEURL",
            "pattern": "",
            "type": "TEXT",
            "required": false,
            "description": "",
            "placeholder": ""
        },
        {
            "name": "DATABASEUSERNAME",
            "label": "DATABASEUSERNAME",
            "pattern": "",
            "type": "TEXT",
            "required": false,
            "description": "",
            "placeholder": ""
        },
        {
            "name": "DATABASEPASSWORD",
            "label": "DATABASEPASSWORD",
            "pattern": "",
            "type": "TEXT",
            "required": false,
            "description": "",
            "placeholder": ""
        }
    ],
    "resPropDefs": [],
    "versionPropDefs": [],
    "propSheetGroup": {"propSheets": [
        {
            "name": "custom",
            "properties": []
        },
        {
            "name": "template",
            "properties": []
        },
        {
            "name": "GitComponentProperties",
            "properties": [
                {
                    "name": "branch",
                    "value": "ProductionSupport",
                    "description": "",
                    "secure": false
                },
                {
                    "name": "excludes",
                    "description": "",
                    "secure": false
                },
                {
                    "name": "extensions",
                    "description": "",
                    "secure": false
                },
                {
                    "name": "gitPath",
                    "value": "git",
                    "description": "",
                    "secure": false
                },
                {
                    "name": "includes",
                    "value": "yamls\/*\n**\/*\n",
                    "description": "",
                    "secure": false
                },
                {
                    "name": "password",
                    "value": "crypt_v1{AES\/CBC\/PKCS5Padding|aes128keyfmqr|nt+XIjthNh\/b\/05OlMMFEw==|Vs58rEaXSxgC+yEJ\/E5a\/g==}",
                    "description": "",
                    "secure": true
                },
                {
                    "name": "repoUrl",
                    "value": "https:\/\/bitbucket.org\/suran6918\/srktradingplatform.git",
                    "description": "",
                    "secure": false
                },
                {
                    "name": "saveFileExecuteBits",
                    "value": "false",
                    "description": "",
                    "secure": false
                },
                {
                    "name": "username",
                    "description": "",
                    "secure": false
                },
                {
                    "name": "watchTags",
                    "value": "false",
                    "description": "",
                    "secure": false
                }
            ]
        }
    ]},
    "processes": [{
        "name": "Blue-Deployment",
        "description": "",
        "defaultWorkingDir": "${p:resource\/work.dir}\/${p:component.name}",
        "takesVersion": true,
        "inventoryActionType": "ADD",
        "status": "Active",
        "configActionType": "ADD",
        "active": true,
        "path": "components\/4f6964eb-172c-4337-a044-5822b5443274\/processes\/e3925791-d67d-464b-9b31-64bf106eb483",
        "deleted": false,
        "propDefs": [],
        "rootActivity": {
            "edges": [
                {
                    "to": "Shell - YAML",
                    "from": "Shell - ENV",
                    "type": "SUCCESS",
                    "value": ""
                },
                {
                    "to": "Shell - build",
                    "from": "Login and or Create Project",
                    "type": "SUCCESS",
                    "value": ""
                },
                {
                    "to": "37680ba4df92dfe62007e53ea11caf",
                    "from": "Shell - YAML",
                    "type": "SUCCESS",
                    "value": ""
                },
                {
                    "to": "Download Artifacts",
                    "type": "ALWAYS",
                    "value": ""
                },
                {
                    "to": "Shell - ENV",
                    "from": "Shell - build",
                    "type": "SUCCESS",
                    "value": ""
                },
                {
                    "to": "Login and or Create Project",
                    "from": "Download Artifacts",
                    "type": "SUCCESS",
                    "value": ""
                }
            ],
            "offsets": [
                {
                    "name": "Shell - ENV",
                    "x": -25,
                    "y": 490,
                    "h": 70,
                    "w": 160
                },
                {
                    "name": "Download Artifacts",
                    "x": -75,
                    "y": 130,
                    "h": 70,
                    "w": 260
                },
                {
                    "name": "37680ba4df92dfe62007e53ea11caf",
                    "x": -5,
                    "y": 730,
                    "h": 80,
                    "w": 120
                },
                {
                    "name": "Login and or Create Project",
                    "x": -80,
                    "y": 250,
                    "h": 70,
                    "w": 270
                },
                {
                    "name": "Shell - build",
                    "x": -30,
                    "y": 370,
                    "h": 70,
                    "w": 170
                },
                {
                    "name": "Shell - YAML",
                    "x": -35,
                    "y": 610,
                    "h": 70,
                    "w": 180
                }
            ],
            "layoutMode": "auto",
            "type": "graph",
            "name": "96badc78-e67c-4afc-b6b5-da10f4139e95",
            "children": [
                {
                    "type": "finish",
                    "name": "37680ba4df92dfe62007e53ea11caf",
                    "children": []
                },
                {
                    "allowFailure": false,
                    "useImpersonation": false,
                    "showHidden": false,
                    "impersonationUseSudo": false,
                    "pluginVersion": 30,
                    "commandName": "Download Artifacts",
                    "pluginName": "UrbanCode Deploy Versioned File Storage",
                    "properties": {
                        "directoryOffset": ".",
                        "artifactSetBaseDir": "",
                        "fileIncludePatterns": "**\/*",
                        "fileExcludePatterns": "",
                        "syncMode": "true",
                        "fullVerification": "true",
                        "setFileExecuteBits": "false",
                        "verifyFileIntegrity": "false",
                        "versionId": "${p:version.id}",
                        "serverUrl": "${p:server.url}",
                        "compId": "${p:component.id}",
                        "resId": "${p:resource.id}",
                        "charset": "",
                        "label": ""
                    },
                    "type": "plugin",
                    "name": "Download Artifacts",
                    "children": []
                },
                {
                    "allowFailure": false,
                    "useImpersonation": false,
                    "showHidden": false,
                    "impersonationUseSudo": false,
                    "pluginVersion": 9,
                    "commandName": "Shell",
                    "pluginName": "Shell",
                    "properties": {
                        "directoryOffset": ".",
                        "shellInterpreter": "\/bin\/bash",
                        "scriptBody": "(sleep 2; echo y) | oc login --insecure-skip-tls-verify=true -u admin -p admin ${p:DEST}\r\n\r\nif ! oc project ${p:PROJ}\r\nthen\r\n  oc new-project ${p:PROJ}\r\nfi\r\n\r\necho $pwd",
                        "runAsDaemon": "false",
                        "outputFile": ""
                    },
                    "type": "plugin",
                    "name": "Login and or Create Project",
                    "children": []
                },
                {
                    "allowFailure": false,
                    "useImpersonation": false,
                    "showHidden": false,
                    "impersonationUseSudo": false,
                    "pluginVersion": 9,
                    "commandName": "Shell",
                    "pluginName": "Shell",
                    "properties": {
                        "directoryOffset": ".",
                        "shellInterpreter": "\/bin\/bash",
                        "scriptBody": "oc login --insecure-skip-tls-verify=true -u admin -p admin ${p:DEST}\noc project ${p:PROJ}\n\n\noc new-build --strategy docker --binary --name ${p:PROJ} || echo \"Build already exists\"\noc start-build ${p:PROJ} --from-dir=\/opt\/ibm-ucd\/agent\/var\/work\/${P:CANAME}\necho $pwd\n\nls -la",
                        "runAsDaemon": "false",
                        "outputFile": ""
                    },
                    "type": "plugin",
                    "name": "Shell - build",
                    "children": []
                },
                {
                    "allowFailure": false,
                    "useImpersonation": false,
                    "showHidden": false,
                    "impersonationUseSudo": false,
                    "pluginVersion": 9,
                    "commandName": "Shell",
                    "pluginName": "Shell",
                    "properties": {
                        "directoryOffset": "yamls",
                        "shellInterpreter": "\/bin\/bash",
                        "scriptBody": "oc login --insecure-skip-tls-verify=true -u admin -p admin ${p:DEST}\noc project ${p:PROJ}\n\noc apply -f deploymentconfig.yaml\noc apply -f service.yaml\noc apply -f route.yaml\n\necho $pwd",
                        "runAsDaemon": "false",
                        "outputFile": ""
                    },
                    "type": "plugin",
                    "name": "Shell - YAML",
                    "children": []
                },
                {
                    "allowFailure": false,
                    "useImpersonation": false,
                    "showHidden": false,
                    "impersonationUseSudo": false,
                    "pluginVersion": 9,
                    "commandName": "Shell",
                    "pluginName": "Shell",
                    "properties": {
                        "directoryOffset": ".",
                        "shellInterpreter": "\/bin\/bash",
                        "scriptBody": "oc login --insecure-skip-tls-verify=true -u admin -p admin ${p:DEST}\noc project ${p:PROJ}\n\noc set env dc\/${p:PROJ} OPENSHIFT_PRICING_SERVICE=${p:PRICINGSERVICE}\noc set env dc\/${p:PROJ} OPENSHIFT_BROKER_URL=${p:BROKERURL}\noc set env dc\/${p:PROJ} OPENSHIFT_NOTIFICATION_QUEUE=${p:NOTIFICATIONQUEUE}\noc set env dc\/${p:PROJ} OPENSHIFT_DATABASE_URL=${p:DATABASEURL}\noc set env dc\/${p:PROJ} OPENSHIFT_DATABASE_USERNAME=${p:DATABASEUSERNAME}\noc set env dc\/${p:PROJ} OPENSHIFT_DATABASE_PASSWORD=${p:DATABASEPASSWORD}",
                        "runAsDaemon": "false",
                        "outputFile": ""
                    },
                    "type": "plugin",
                    "name": "Shell - ENV",
                    "children": []
                }
            ]
        }
    }],
    "configTemplates": [],
    "genericProcesses": [],
    "teamMappings": [],
    "tags": []
}